# MagicaVoxel @ Ephtracy

# group
o 

# material
mtllib chr_knight.mtl
usemtl palette

# normals
vn -1 0 0
vn 1 0 0
vn 0 0 1
vn 0 0 -1
vn 0 -1 0
vn 0 1 0

# texcoords
vt 0.0332031 0.5
vt 0.0410156 0.5
vt 0.0605469 0.5
vt 0.0644531 0.5
vt 0.0683594 0.5
vt 0.201172 0.5
vt 0.205078 0.5
vt 0.369141 0.5
vt 0.486328 0.5
vt 0.603516 0.5
vt 0.607422 0.5
vt 0.623047 0.5
vt 0.767578 0.5
vt 0.958984 0.5
vt 0.962891 0.5
vt 0.966797 0.5
vt 0.970703 0.5
vt 0.974609 0.5
vt 0.978516 0.5
vt 0.982422 0.5
vt 0.994141 0.5

# verts
v -0.9 0.8 0.1
v -0.9 0.8 0
v -0.9 1.2 0.1
v -0.9 1.2 0
v -0.8 0.7 0.1
v -0.8 0.7 0
v -0.8 0.8 0.1
v -0.8 0.8 0
v -0.8 1.2 0.1
v -0.8 1.2 0
v -0.8 1.3 0.1
v -0.8 1.3 0
v -0.7 0.6 0.1
v -0.7 0.6 0
v -0.7 0.7 0.1
v -0.7 0.7 0
v -0.7 0.8 0.1
v -0.7 0.8 0
v -0.7 1 0.1
v -0.7 1 0
v -0.7 1.2 0.1
v -0.7 1.2 0
v -0.7 1.3 0.1
v -0.7 1.3 0
v -0.7 1.4 0.1
v -0.7 1.4 0
v -0.5 0 0.1
v -0.5 0 0
v -0.5 0.9 0.1
v -0.5 0.9 0
v -0.5 1.1 0.1
v -0.5 1.1 0
v -0.5 1.2 0.1
v -0.5 1.2 0
v -0.4 1.4 0.1
v -0.4 1.4 0
v -0.4 1.5 0.1
v -0.4 1.5 0
v -0.4 1.6 0.1
v -0.4 1.6 0
v -0.3 0.5 0.1
v -0.3 0.5 0
v -0.3 0.6 0.1
v -0.3 0.6 0
v -0.3 0.9 0.2
v -0.3 0.9 -0.1
v -0.3 1 0.3
v -0.3 1 0.2
v -0.3 1 0.1
v -0.3 1 0
v -0.3 1 -0.1
v -0.3 1 -0.2
v -0.3 1.1 0.2
v -0.3 1.1 0.1
v -0.3 1.1 0
v -0.3 1.1 -0.1
v -0.3 1.2 0.2
v -0.3 1.2 0.1
v -0.3 1.2 0
v -0.3 1.2 -0.1
v -0.3 1.3 0.3
v -0.3 1.3 0.2
v -0.3 1.3 0.1
v -0.3 1.3 0
v -0.3 1.3 -0.1
v -0.3 1.3 -0.2
v -0.3 1.4 0.2
v -0.3 1.4 0.1
v -0.3 1.4 0
v -0.3 1.4 -0.1
v -0.2 0.4 0.3
v -0.2 0.4 0.2
v -0.2 0.4 0.1
v -0.2 0.4 0
v -0.2 0.4 -0.1
v -0.2 0.4 -0.2
v -0.2 0.5 0.3
v -0.2 0.5 0.2
v -0.2 0.5 0.1
v -0.2 0.5 0
v -0.2 0.5 -0.1
v -0.2 0.5 -0.2
v -0.2 0.6 0.2
v -0.2 0.6 0.1
v -0.2 0.6 0
v -0.2 0.7 0.1
v -0.2 0.7 0
v -0.2 0.7 -0.1
v -0.2 0.8 0.3
v -0.2 0.8 0.2
v -0.2 0.8 0.1
v -0.2 0.8 0
v -0.2 0.8 -0.1
v -0.2 0.8 -0.2
v -0.2 0.9 0.2
v -0.2 0.9 0.1
v -0.2 0.9 -0.1
v -0.2 0.9 -0.2
v -0.2 1 0.3
v -0.2 1 0.2
v -0.2 1 0.1
v -0.2 1 0
v -0.2 1 -0.1
v -0.2 1 -0.2
v -0.2 1 -0.3
v -0.2 1.1 0.4
v -0.2 1.1 0.3
v -0.2 1.1 0.2
v -0.2 1.1 0.1
v -0.2 1.1 0
v -0.2 1.1 -0.1
v -0.2 1.2 0.2
v -0.2 1.2 0.1
v -0.2 1.2 0
v -0.2 1.2 -0.1
v -0.2 1.3 0.4
v -0.2 1.3 0.3
v -0.2 1.3 0.2
v -0.2 1.3 0.1
v -0.2 1.3 0
v -0.2 1.3 -0.1
v -0.2 1.3 -0.2
v -0.2 1.3 -0.3
v -0.2 1.4 0.3
v -0.2 1.4 0.2
v -0.2 1.4 -0.1
v -0.2 1.4 -0.2
v -0.1 0 0.1
v -0.1 0 0
v -0.1 0.3 0.1
v -0.1 0.3 0
v -0.1 0.4 0.1
v -0.1 0.4 0
v -0.1 0.5 0.2
v -0.1 0.5 0.1
v -0.1 0.5 0
v -0.1 0.5 -0.1
v -0.1 0.6 0.2
v -0.1 0.6 0.1
v -0.1 0.6 0
v -0.1 0.7 0.3
v -0.1 0.7 0.2
v -0.1 0.7 0
v -0.1 0.7 -0.1
v -0.1 0.7 -0.2
v -0.1 0.8 0.3
v -0.1 0.8 0.2
v -0.1 0.8 0.1
v -0.1 0.8 -0.1
v -0.1 0.8 -0.2
v -0.1 0.8 -0.3
v -0.1 0.9 0.2
v -0.1 0.9 0.1
v -0.1 0.9 -0.2
v -0.1 0.9 -0.3
v -0.1 0.9 -0.4
v -0.1 1 -0.2
v -0.1 1 -0.3
v -0.1 1.2 -0.3
v -0.1 1.2 -0.4
v -0.1 1.4 0.2
v -0.1 1.4 -0.1
v -0.1 1.5 0.2
v -0.1 1.5 -0.1
v 0 0.7 -0.2
v 0 0.7 -0.3
v 0 0.8 -0.2
v 0 0.8 -0.3
v 0 1 0.3
v 0 1 0.2
v 0 1.1 0.3
v 0 1.1 0.2
v 0.2 0 0.1
v 0.2 0 0
v 0.2 0.3 0.1
v 0.2 0.3 0
v 0.2 0.4 0.1
v 0.2 0.4 0
v 0.2 0.6 -0.1
v 0.2 0.6 -0.2
v 0.2 0.6 -0.3
v 0.2 0.7 0.3
v 0.2 0.7 0.2
v 0.2 0.7 -0.1
v 0.2 0.7 -0.2
v 0.2 0.7 -0.3
v 0.2 0.8 0.3
v 0.2 0.8 0.2
v 0.2 0.8 -0.2
v 0.2 0.8 -0.3
v 0.2 0.9 -0.2
v 0.2 0.9 -0.3
v 0.2 0.9 -0.4
v 0.2 1 -0.2
v 0.2 1 -0.4
v 0.3 0.5 -0.2
v 0.3 0.5 -0.3
v 0.3 0.6 -0.2
v 0.3 0.6 -0.3
v 0.3 0.7 -0.2
v 0.3 0.7 -0.3
v 0.3 0.8 0.3
v 0.3 0.8 0.2
v 0.3 0.8 -0.2
v 0.3 0.8 -0.3
v 0.3 0.9 0.2
v 0.3 1 0.2
v 0.3 1.1 0.3
v 0.3 1.1 0.2
v 0.4 0.4 -0.2
v 0.4 0.4 -0.3
v 0.4 0.5 -0.2
v 0.4 0.5 -0.3
v 0.4 0.6 0.1
v 0.4 0.6 0
v 0.4 0.6 -0.2
v 0.4 0.6 -0.3
v 0.4 0.7 0.1
v 0.4 0.7 0
v 0.4 0.7 -0.2
v 0.4 0.7 -0.3
v 0.4 1.4 0.1
v 0.4 1.4 0
v 0.4 1.5 0.1
v 0.4 1.5 0
v 0.5 0.5 0.1
v 0.5 0.5 0
v 0.5 0.5 -0.2
v 0.5 0.5 -0.3
v 0.5 0.6 0.1
v 0.5 0.6 0
v 0.5 0.6 -0.2
v 0.5 0.6 -0.3
v 0.5 0.7 -0.1
v 0.5 0.7 -0.2
v 0.5 0.8 -0.1
v 0.5 0.8 -0.2
v 0.5 1.5 0.1
v 0.5 1.5 0
v 0.5 1.6 0.1
v 0.5 1.6 0
v 0.6 0.4 -0.2
v 0.6 0.4 -0.3
v 0.6 0.5 -0.2
v 0.6 0.5 -0.3
v 0.7 0.5 -0.1
v 0.7 0.5 -0.2
v 0.7 0.6 -0.1
v 0.7 0.6 -0.2
v 0.7 0.7 0.1
v 0.7 0.7 0
v 0.7 0.8 0.1
v 0.7 0.8 0
v -0.8 0.8 0.1
v -0.8 0.8 0
v -0.8 1.2 0.1
v -0.8 1.2 0
v -0.7 0.7 0.1
v -0.7 0.7 0
v -0.7 0.8 0.1
v -0.7 0.8 0
v -0.7 1.2 0.1
v -0.7 1.2 0
v -0.7 1.3 0.1
v -0.7 1.3 0
v -0.6 0.6 0.1
v -0.6 0.6 0
v -0.6 0.7 0.1
v -0.6 0.7 0
v -0.6 0.8 0.1
v -0.6 0.8 0
v -0.6 0.9 0.1
v -0.6 0.9 0
v -0.6 1.1 0.1
v -0.6 1.1 0
v -0.6 1.2 0.1
v -0.6 1.2 0
v -0.6 1.3 0.1
v -0.6 1.3 0
v -0.6 1.4 0.1
v -0.6 1.4 0
v -0.4 0 0.1
v -0.4 0 0
v -0.4 0.4 0.1
v -0.4 0.4 0
v -0.4 0.5 0.1
v -0.4 0.5 0
v -0.4 0.9 0.1
v -0.4 0.9 0
v -0.4 1 0.1
v -0.4 1 0
v -0.4 1.1 0.1
v -0.4 1.1 0
v -0.4 1.2 0.1
v -0.4 1.2 0
v -0.3 0.4 0.1
v -0.3 0.4 0
v -0.3 0.5 0.1
v -0.3 0.5 0
v -0.3 1.5 0.1
v -0.3 1.5 0
v -0.3 1.6 0.1
v -0.3 1.6 0
v -0.2 0.5 0.1
v -0.2 0.5 0
v -0.2 0.6 0.1
v -0.2 0.6 0
v -0.2 1.4 0.1
v -0.2 1.4 0
v -0.2 1.5 0.1
v -0.2 1.5 0
v -0.1 0.8 0.3
v -0.1 0.8 0.2
v -0.1 0.9 0.2
v -0.1 1 0.2
v -0.1 1.1 0.3
v -0.1 1.1 0.2
v 0 0 0.1
v 0 0 0
v 0 0.3 0.1
v 0 0.3 0
v 0 0.4 0.1
v 0 0.4 0
v 0 0.7 0.3
v 0 0.7 0.2
v 0 0.8 0.3
v 0 0.8 0.2
v 0 0.8 -0.2
v 0 0.8 -0.3
v 0 0.9 -0.2
v 0 0.9 -0.3
v 0 0.9 -0.4
v 0 1 -0.2
v 0 1 -0.4
v 0.1 1 0.3
v 0.1 1 0.2
v 0.1 1.1 0.3
v 0.1 1.1 0.2
v 0.2 0.7 -0.2
v 0.2 0.7 -0.3
v 0.2 0.8 -0.2
v 0.2 0.8 -0.3
v 0.3 0 0.1
v 0.3 0 0
v 0.3 0.3 0.1
v 0.3 0.3 0
v 0.3 0.4 0.1
v 0.3 0.4 0
v 0.3 0.5 0.2
v 0.3 0.5 0.1
v 0.3 0.5 0
v 0.3 0.5 -0.1
v 0.3 0.6 0.2
v 0.3 0.6 0.1
v 0.3 0.6 0
v 0.3 0.6 -0.1
v 0.3 0.6 -0.2
v 0.3 0.6 -0.3
v 0.3 0.7 0.3
v 0.3 0.7 0.2
v 0.3 0.7 0.1
v 0.3 0.7 0
v 0.3 0.7 -0.1
v 0.3 0.7 -0.2
v 0.3 0.7 -0.3
v 0.3 0.8 0.3
v 0.3 0.8 0.2
v 0.3 0.8 0.1
v 0.3 0.8 -0.2
v 0.3 0.8 -0.3
v 0.3 0.9 0.2
v 0.3 0.9 0.1
v 0.3 0.9 -0.2
v 0.3 0.9 -0.3
v 0.3 0.9 -0.4
v 0.3 1 -0.2
v 0.3 1 -0.3
v 0.3 1.2 -0.3
v 0.3 1.2 -0.4
v 0.3 1.4 0.2
v 0.3 1.4 0
v 0.3 1.4 -0.1
v 0.3 1.5 0.2
v 0.3 1.5 -0.1
v 0.4 0.4 0.3
v 0.4 0.4 0.2
v 0.4 0.4 0.1
v 0.4 0.4 0
v 0.4 0.4 -0.1
v 0.4 0.4 -0.2
v 0.4 0.5 0.3
v 0.4 0.5 0.2
v 0.4 0.5 0.1
v 0.4 0.5 0
v 0.4 0.5 -0.1
v 0.4 0.5 -0.2
v 0.4 0.5 -0.3
v 0.4 0.6 0.2
v 0.4 0.6 0.1
v 0.4 0.6 -0.2
v 0.4 0.6 -0.3
v 0.4 0.7 0.1
v 0.4 0.7 0
v 0.4 0.7 -0.2
v 0.4 0.7 -0.3
v 0.4 0.8 0.3
v 0.4 0.8 0.2
v 0.4 0.8 0.1
v 0.4 0.8 0
v 0.4 0.8 -0.1
v 0.4 0.8 -0.2
v 0.4 0.8 -0.3
v 0.4 0.9 0.2
v 0.4 0.9 0.1
v 0.4 0.9 0
v 0.4 0.9 -0.1
v 0.4 0.9 -0.2
v 0.4 1 0.3
v 0.4 1 0.2
v 0.4 1 0.1
v 0.4 1 0
v 0.4 1 -0.1
v 0.4 1 -0.2
v 0.4 1 -0.3
v 0.4 1.1 0.4
v 0.4 1.1 0.3
v 0.4 1.1 0.2
v 0.4 1.1 0.1
v 0.4 1.1 0
v 0.4 1.1 -0.1
v 0.4 1.2 0.4
v 0.4 1.2 0.3
v 0.4 1.2 0.2
v 0.4 1.2 0.1
v 0.4 1.2 0
v 0.4 1.2 -0.1
v 0.4 1.3 0.4
v 0.4 1.3 0.3
v 0.4 1.3 0.2
v 0.4 1.3 0.1
v 0.4 1.3 0
v 0.4 1.3 -0.1
v 0.4 1.3 -0.2
v 0.4 1.3 -0.3
v 0.4 1.4 0.3
v 0.4 1.4 0.2
v 0.4 1.4 -0.1
v 0.4 1.4 -0.2
v 0.5 0.4 0.1
v 0.5 0.4 0
v 0.5 0.4 -0.2
v 0.5 0.4 -0.3
v 0.5 0.5 0.1
v 0.5 0.5 0
v 0.5 0.5 -0.2
v 0.5 0.5 -0.3
v 0.5 0.6 0.1
v 0.5 0.6 0
v 0.5 0.6 -0.2
v 0.5 0.6 -0.3
v 0.5 0.7 0.1
v 0.5 0.7 0
v 0.5 0.7 -0.2
v 0.5 0.7 -0.3
v 0.5 0.8 0
v 0.5 0.8 -0.1
v 0.5 0.9 0.2
v 0.5 0.9 0
v 0.5 0.9 -0.1
v 0.5 1 0.3
v 0.5 1 0.2
v 0.5 1 0.1
v 0.5 1 0
v 0.5 1 -0.1
v 0.5 1 -0.2
v 0.5 1.1 0.2
v 0.5 1.1 0.1
v 0.5 1.1 0
v 0.5 1.1 -0.1
v 0.5 1.2 0.2
v 0.5 1.2 0.1
v 0.5 1.2 0
v 0.5 1.2 -0.1
v 0.5 1.3 0.3
v 0.5 1.3 0.2
v 0.5 1.3 0.1
v 0.5 1.3 0
v 0.5 1.3 -0.1
v 0.5 1.3 -0.2
v 0.5 1.4 0.2
v 0.5 1.4 0.1
v 0.5 1.4 0
v 0.5 1.4 -0.1
v 0.6 0.5 0.1
v 0.6 0.5 0
v 0.6 0.5 -0.2
v 0.6 0.5 -0.3
v 0.6 0.6 0.1
v 0.6 0.6 0
v 0.6 0.6 -0.2
v 0.6 0.6 -0.3
v 0.6 0.7 -0.1
v 0.6 0.7 -0.2
v 0.6 0.8 -0.1
v 0.6 0.8 -0.2
v 0.6 1.4 0.1
v 0.6 1.4 0
v 0.6 1.5 0.1
v 0.6 1.5 0
v 0.6 1.6 0.1
v 0.6 1.6 0
v 0.7 0.4 -0.2
v 0.7 0.4 -0.3
v 0.7 0.5 -0.2
v 0.7 0.5 -0.3
v 0.8 0.5 -0.1
v 0.8 0.5 -0.2
v 0.8 0.6 -0.1
v 0.8 0.6 -0.2
v 0.8 0.7 0.1
v 0.8 0.7 0
v 0.8 0.8 0.1
v 0.8 0.8 0
v -0.2 1.1 0.4
v -0.2 1.3 0.4
v 0.1 1.1 0.4
v 0.1 1.3 0.4
v 0.3 1.2 0.4
v 0.3 1.3 0.4
v 0.4 1.1 0.4
v 0.4 1.2 0.4
v 0.4 1.3 0.4
v -0.3 1 0.3
v -0.3 1.3 0.3
v -0.2 0.4 0.3
v -0.2 0.5 0.3
v -0.2 0.8 0.3
v -0.2 1 0.3
v -0.2 1.1 0.3
v -0.2 1.3 0.3
v -0.2 1.4 0.3
v -0.1 0.4 0.3
v -0.1 0.5 0.3
v -0.1 0.7 0.3
v -0.1 0.8 0.3
v -0.1 1.1 0.3
v -0.1 1.3 0.3
v -0.1 1.4 0.3
v 0 0.4 0.3
v 0 0.5 0.3
v 0 0.7 0.3
v 0 0.8 0.3
v 0 1 0.3
v 0 1.1 0.3
v 0.1 0.4 0.3
v 0.1 0.5 0.3
v 0.1 1 0.3
v 0.1 1.1 0.3
v 0.1 1.3 0.3
v 0.2 0.4 0.3
v 0.2 0.5 0.3
v 0.2 0.7 0.3
v 0.2 0.8 0.3
v 0.3 0.4 0.3
v 0.3 0.5 0.3
v 0.3 0.7 0.3
v 0.3 0.8 0.3
v 0.3 1.1 0.3
v 0.3 1.3 0.3
v 0.4 0.4 0.3
v 0.4 0.5 0.3
v 0.4 0.8 0.3
v 0.4 1 0.3
v 0.4 1.1 0.3
v 0.4 1.2 0.3
v 0.4 1.3 0.3
v 0.4 1.4 0.3
v 0.5 1 0.3
v 0.5 1.3 0.3
v -0.3 0.9 0.2
v -0.3 1 0.2
v -0.3 1.3 0.2
v -0.3 1.4 0.2
v -0.2 0.6 0.2
v -0.2 0.8 0.2
v -0.2 0.9 0.2
v -0.2 1 0.2
v -0.2 1.3 0.2
v -0.2 1.4 0.2
v -0.1 0.5 0.2
v -0.1 0.6 0.2
v -0.1 0.7 0.2
v -0.1 0.8 0.2
v -0.1 0.9 0.2
v -0.1 1 0.2
v -0.1 1.1 0.2
v -0.1 1.4 0.2
v -0.1 1.5 0.2
v 0 0.5 0.2
v 0 0.7 0.2
v 0 0.8 0.2
v 0 0.9 0.2
v 0 1 0.2
v 0 1.1 0.2
v 0 1.4 0.2
v 0 1.5 0.2
v 0.1 0.5 0.2
v 0.1 0.7 0.2
v 0.1 0.8 0.2
v 0.1 0.9 0.2
v 0.1 1 0.2
v 0.1 1.1 0.2
v 0.2 0.5 0.2
v 0.2 0.6 0.2
v 0.2 0.7 0.2
v 0.2 0.8 0.2
v 0.2 0.9 0.2
v 0.2 1 0.2
v 0.3 0.5 0.2
v 0.3 0.6 0.2
v 0.3 0.7 0.2
v 0.3 0.8 0.2
v 0.3 0.9 0.2
v 0.3 1 0.2
v 0.3 1.1 0.2
v 0.3 1.4 0.2
v 0.3 1.5 0.2
v 0.4 0.6 0.2
v 0.4 0.8 0.2
v 0.4 0.9 0.2
v 0.4 1 0.2
v 0.4 1.3 0.2
v 0.4 1.4 0.2
v 0.5 0.9 0.2
v 0.5 1 0.2
v 0.5 1.3 0.2
v 0.5 1.4 0.2
v -0.9 0.8 0.1
v -0.9 1.2 0.1
v -0.8 0.7 0.1
v -0.8 0.8 0.1
v -0.8 1.2 0.1
v -0.8 1.3 0.1
v -0.7 0.6 0.1
v -0.7 0.7 0.1
v -0.7 0.8 0.1
v -0.7 1 0.1
v -0.7 1.2 0.1
v -0.7 1.3 0.1
v -0.7 1.4 0.1
v -0.6 0.6 0.1
v -0.6 0.7 0.1
v -0.6 0.8 0.1
v -0.6 0.9 0.1
v -0.6 1 0.1
v -0.6 1.1 0.1
v -0.6 1.2 0.1
v -0.6 1.3 0.1
v -0.6 1.4 0.1
v -0.5 0 0.1
v -0.5 0.9 0.1
v -0.5 1 0.1
v -0.5 1.1 0.1
v -0.5 1.2 0.1
v -0.4 0 0.1
v -0.4 0.4 0.1
v -0.4 0.5 0.1
v -0.4 0.9 0.1
v -0.4 1 0.1
v -0.4 1.1 0.1
v -0.4 1.2 0.1
v -0.4 1.4 0.1
v -0.4 1.5 0.1
v -0.4 1.6 0.1
v -0.3 0.4 0.1
v -0.3 0.5 0.1
v -0.3 0.6 0.1
v -0.3 1 0.1
v -0.3 1.1 0.1
v -0.3 1.2 0.1
v -0.3 1.3 0.1
v -0.3 1.4 0.1
v -0.3 1.5 0.1
v -0.3 1.6 0.1
v -0.2 0.5 0.1
v -0.2 0.6 0.1
v -0.2 0.8 0.1
v -0.2 0.9 0.1
v -0.2 1 0.1
v -0.2 1.1 0.1
v -0.2 1.2 0.1
v -0.2 1.3 0.1
v -0.2 1.4 0.1
v -0.2 1.5 0.1
v -0.1 0 0.1
v -0.1 0.3 0.1
v -0.1 0.4 0.1
v -0.1 0.8 0.1
v -0.1 0.9 0.1
v 0 0 0.1
v 0 0.3 0.1
v 0 0.4 0.1
v 0.2 0 0.1
v 0.2 0.3 0.1
v 0.2 0.4 0.1
v 0.3 0 0.1
v 0.3 0.3 0.1
v 0.3 0.4 0.1
v 0.3 0.8 0.1
v 0.3 0.9 0.1
v 0.4 0.4 0.1
v 0.4 0.5 0.1
v 0.4 0.6 0.1
v 0.4 0.7 0.1
v 0.4 0.8 0.1
v 0.4 0.9 0.1
v 0.4 1 0.1
v 0.4 1.1 0.1
v 0.4 1.2 0.1
v 0.4 1.3 0.1
v 0.4 1.4 0.1
v 0.4 1.5 0.1
v 0.5 0.4 0.1
v 0.5 0.5 0.1
v 0.5 0.6 0.1
v 0.5 0.7 0.1
v 0.5 1 0.1
v 0.5 1.1 0.1
v 0.5 1.2 0.1
v 0.5 1.3 0.1
v 0.5 1.4 0.1
v 0.5 1.5 0.1
v 0.5 1.6 0.1
v 0.6 0.5 0.1
v 0.6 0.6 0.1
v 0.6 1.4 0.1
v 0.6 1.5 0.1
v 0.6 1.6 0.1
v 0.7 0.7 0.1
v 0.7 0.8 0.1
v 0.8 0.7 0.1
v 0.8 0.8 0.1
v -0.3 1.1 0
v -0.3 1.2 0
v -0.2 1.1 0
v -0.2 1.2 0
v 0.4 0.8 0
v 0.4 0.9 0
v 0.4 1.1 0
v 0.4 1.2 0
v 0.5 0.8 0
v 0.5 0.9 0
v 0.5 1.1 0
v 0.5 1.2 0
v -0.3 1 -0.1
v -0.3 1.1 -0.1
v -0.3 1.2 -0.1
v -0.3 1.3 -0.1
v -0.2 1 -0.1
v -0.2 1.1 -0.1
v -0.2 1.2 -0.1
v -0.2 1.3 -0.1
v 0.4 1 -0.1
v 0.4 1.1 -0.1
v 0.4 1.2 -0.1
v 0.4 1.3 -0.1
v 0.5 0.7 -0.1
v 0.5 0.8 -0.1
v 0.5 1 -0.1
v 0.5 1.1 -0.1
v 0.5 1.2 -0.1
v 0.5 1.3 -0.1
v 0.6 0.7 -0.1
v 0.6 0.8 -0.1
v 0.7 0.5 -0.1
v 0.7 0.6 -0.1
v 0.8 0.5 -0.1
v 0.8 0.6 -0.1
v 0.3 0.5 -0.2
v 0.3 0.6 -0.2
v 0.4 0.4 -0.2
v 0.4 0.5 -0.2
v 0.4 0.6 -0.2
v 0.4 0.7 -0.2
v 0.5 0.4 -0.2
v 0.5 0.5 -0.2
v 0.5 0.6 -0.2
v 0.5 0.7 -0.2
v 0.6 0.4 -0.2
v 0.6 0.5 -0.2
v 0.6 0.6 -0.2
v 0.7 0.4 -0.2
v 0.7 0.5 -0.2
v -0.3 1 0.2
v -0.3 1.1 0.2
v -0.3 1.2 0.2
v -0.3 1.3 0.2
v -0.2 0.8 0.2
v -0.2 0.9 0.2
v -0.2 1 0.2
v -0.2 1.1 0.2
v -0.2 1.2 0.2
v -0.2 1.3 0.2
v -0.1 0.8 0.2
v -0.1 0.9 0.2
v 0.3 0.8 0.2
v 0.3 0.9 0.2
v 0.4 0.8 0.2
v 0.4 0.9 0.2
v 0.4 1 0.2
v 0.4 1.1 0.2
v 0.4 1.2 0.2
v 0.4 1.3 0.2
v 0.5 1 0.2
v 0.5 1.1 0.2
v 0.5 1.2 0.2
v 0.5 1.3 0.2
v -0.3 1.1 0.1
v -0.3 1.2 0.1
v -0.2 1.1 0.1
v -0.2 1.2 0.1
v 0.3 0.6 0.1
v 0.3 0.7 0.1
v 0.4 0.6 0.1
v 0.4 0.7 0.1
v 0.4 1.1 0.1
v 0.4 1.2 0.1
v 0.5 1.1 0.1
v 0.5 1.2 0.1
v -0.9 0.8 0
v -0.9 1.2 0
v -0.8 0.7 0
v -0.8 0.8 0
v -0.8 1.2 0
v -0.8 1.3 0
v -0.7 0.6 0
v -0.7 0.7 0
v -0.7 0.8 0
v -0.7 1 0
v -0.7 1.2 0
v -0.7 1.3 0
v -0.7 1.4 0
v -0.6 0.6 0
v -0.6 0.7 0
v -0.6 0.8 0
v -0.6 0.9 0
v -0.6 1 0
v -0.6 1.1 0
v -0.6 1.2 0
v -0.6 1.3 0
v -0.6 1.4 0
v -0.5 0 0
v -0.5 0.9 0
v -0.5 1 0
v -0.5 1.1 0
v -0.5 1.2 0
v -0.4 0 0
v -0.4 0.4 0
v -0.4 0.5 0
v -0.4 0.9 0
v -0.4 1 0
v -0.4 1.1 0
v -0.4 1.2 0
v -0.4 1.4 0
v -0.4 1.5 0
v -0.4 1.6 0
v -0.3 0.4 0
v -0.3 0.5 0
v -0.3 0.6 0
v -0.3 1 0
v -0.3 1.1 0
v -0.3 1.2 0
v -0.3 1.3 0
v -0.3 1.4 0
v -0.3 1.5 0
v -0.3 1.6 0
v -0.2 0.5 0
v -0.2 0.6 0
v -0.2 0.7 0
v -0.2 1 0
v -0.2 1.1 0
v -0.2 1.2 0
v -0.2 1.3 0
v -0.2 1.4 0
v -0.2 1.5 0
v -0.1 0 0
v -0.1 0.3 0
v -0.1 0.4 0
v -0.1 0.6 0
v -0.1 0.7 0
v 0 0 0
v 0 0.3 0
v 0 0.4 0
v 0.2 0 0
v 0.2 0.3 0
v 0.2 0.4 0
v 0.3 0 0
v 0.3 0.3 0
v 0.3 0.4 0
v 0.4 0.4 0
v 0.4 0.5 0
v 0.4 0.6 0
v 0.4 0.7 0
v 0.4 1 0
v 0.4 1.1 0
v 0.4 1.2 0
v 0.4 1.3 0
v 0.4 1.4 0
v 0.4 1.5 0
v 0.5 0.4 0
v 0.5 0.5 0
v 0.5 0.6 0
v 0.5 0.7 0
v 0.5 1 0
v 0.5 1.1 0
v 0.5 1.2 0
v 0.5 1.3 0
v 0.5 1.4 0
v 0.5 1.5 0
v 0.5 1.6 0
v 0.6 0.5 0
v 0.6 0.6 0
v 0.6 1.4 0
v 0.6 1.5 0
v 0.6 1.6 0
v 0.7 0.7 0
v 0.7 0.8 0
v 0.8 0.7 0
v 0.8 0.8 0
v -0.3 0.9 -0.1
v -0.3 1 -0.1
v -0.3 1.3 -0.1
v -0.3 1.4 -0.1
v -0.2 0.7 -0.1
v -0.2 0.8 -0.1
v -0.2 0.9 -0.1
v -0.2 1 -0.1
v -0.2 1.3 -0.1
v -0.2 1.4 -0.1
v -0.1 0.5 -0.1
v -0.1 0.7 -0.1
v -0.1 0.8 -0.1
v -0.1 1.4 -0.1
v -0.1 1.5 -0.1
v 0 0.5 -0.1
v 0 0.7 -0.1
v 0 1.4 -0.1
v 0 1.5 -0.1
v 0.1 0.5 -0.1
v 0.1 0.7 -0.1
v 0.2 0.5 -0.1
v 0.2 0.6 -0.1
v 0.2 0.7 -0.1
v 0.3 0.5 -0.1
v 0.3 0.6 -0.1
v 0.3 1.4 -0.1
v 0.3 1.5 -0.1
v 0.4 0.8 -0.1
v 0.4 0.9 -0.1
v 0.4 1 -0.1
v 0.4 1.3 -0.1
v 0.4 1.4 -0.1
v 0.5 0.8 -0.1
v 0.5 0.9 -0.1
v 0.5 1 -0.1
v 0.5 1.3 -0.1
v 0.5 1.4 -0.1
v -0.3 1 -0.2
v -0.3 1.3 -0.2
v -0.2 0.4 -0.2
v -0.2 0.5 -0.2
v -0.2 0.8 -0.2
v -0.2 0.9 -0.2
v -0.2 1 -0.2
v -0.2 1.3 -0.2
v -0.2 1.4 -0.2
v -0.1 0.4 -0.2
v -0.1 0.5 -0.2
v -0.1 0.7 -0.2
v -0.1 0.8 -0.2
v -0.1 0.9 -0.2
v -0.1 1 -0.2
v 0 0.4 -0.2
v 0 0.5 -0.2
v 0 0.7 -0.2
v 0 0.8 -0.2
v 0 0.9 -0.2
v 0 1 -0.2
v 0.1 0.4 -0.2
v 0.1 0.5 -0.2
v 0.2 0.4 -0.2
v 0.2 0.5 -0.2
v 0.2 0.7 -0.2
v 0.2 0.8 -0.2
v 0.2 0.9 -0.2
v 0.2 1 -0.2
v 0.3 0.4 -0.2
v 0.3 0.5 -0.2
v 0.3 0.7 -0.2
v 0.3 0.8 -0.2
v 0.3 0.9 -0.2
v 0.3 1 -0.2
v 0.4 0.4 -0.2
v 0.4 0.5 -0.2
v 0.4 0.8 -0.2
v 0.4 0.9 -0.2
v 0.4 1 -0.2
v 0.4 1.3 -0.2
v 0.4 1.4 -0.2
v 0.5 0.7 -0.2
v 0.5 0.8 -0.2
v 0.5 1 -0.2
v 0.5 1.3 -0.2
v 0.6 0.7 -0.2
v 0.6 0.8 -0.2
v 0.7 0.5 -0.2
v 0.7 0.6 -0.2
v 0.8 0.5 -0.2
v 0.8 0.6 -0.2
v -0.2 1 -0.3
v -0.2 1.3 -0.3
v -0.1 0.8 -0.3
v -0.1 0.9 -0.3
v -0.1 1 -0.3
v -0.1 1.2 -0.3
v 0 0.7 -0.3
v 0 0.8 -0.3
v 0 0.9 -0.3
v 0.2 0.6 -0.3
v 0.2 0.7 -0.3
v 0.2 0.8 -0.3
v 0.2 0.9 -0.3
v 0.3 0.5 -0.3
v 0.3 0.6 -0.3
v 0.3 0.7 -0.3
v 0.3 0.8 -0.3
v 0.3 0.9 -0.3
v 0.3 1 -0.3
v 0.3 1.2 -0.3
v 0.4 0.4 -0.3
v 0.4 0.5 -0.3
v 0.4 0.6 -0.3
v 0.4 0.7 -0.3
v 0.4 0.8 -0.3
v 0.4 1 -0.3
v 0.4 1.3 -0.3
v 0.5 0.4 -0.3
v 0.5 0.5 -0.3
v 0.5 0.6 -0.3
v 0.5 0.7 -0.3
v 0.6 0.4 -0.3
v 0.6 0.5 -0.3
v 0.6 0.6 -0.3
v 0.7 0.4 -0.3
v 0.7 0.5 -0.3
v -0.1 0.9 -0.4
v -0.1 1.2 -0.4
v 0 0.9 -0.4
v 0 1 -0.4
v 0.2 0.9 -0.4
v 0.2 1 -0.4
v 0.3 0.9 -0.4
v 0.3 1.2 -0.4
v -0.5 0 0.1
v -0.4 0 0.1
v -0.1 0 0.1
v 0 0 0.1
v 0.2 0 0.1
v 0.3 0 0.1
v -0.5 0 0
v -0.4 0 0
v -0.1 0 0
v 0 0 0
v 0.2 0 0
v 0.3 0 0
v -0.2 0.4 0.3
v -0.1 0.4 0.3
v 0 0.4 0.3
v 0.1 0.4 0.3
v 0.2 0.4 0.3
v 0.3 0.4 0.3
v 0.4 0.4 0.3
v -0.2 0.4 0.2
v -0.1 0.4 0.2
v 0.3 0.4 0.2
v 0.4 0.4 0.2
v -0.4 0.4 0.1
v -0.3 0.4 0.1
v -0.2 0.4 0.1
v -0.1 0.4 0.1
v 0 0.4 0.1
v 0.2 0.4 0.1
v 0.3 0.4 0.1
v 0.4 0.4 0.1
v 0.5 0.4 0.1
v -0.4 0.4 0
v -0.3 0.4 0
v -0.2 0.4 0
v -0.1 0.4 0
v 0 0.4 0
v 0.2 0.4 0
v 0.3 0.4 0
v 0.4 0.4 0
v 0.5 0.4 0
v -0.2 0.4 -0.1
v -0.1 0.4 -0.1
v 0.3 0.4 -0.1
v 0.4 0.4 -0.1
v -0.2 0.4 -0.2
v -0.1 0.4 -0.2
v 0 0.4 -0.2
v 0.1 0.4 -0.2
v 0.2 0.4 -0.2
v 0.3 0.4 -0.2
v 0.4 0.4 -0.2
v 0.5 0.4 -0.2
v 0.6 0.4 -0.2
v 0.7 0.4 -0.2
v 0.4 0.4 -0.3
v 0.5 0.4 -0.3
v 0.6 0.4 -0.3
v 0.7 0.4 -0.3
v -0.3 0.5 0.1
v -0.2 0.5 0.1
v 0.5 0.5 0.1
v 0.6 0.5 0.1
v -0.3 0.5 0
v -0.2 0.5 0
v 0.5 0.5 0
v 0.6 0.5 0
v 0.7 0.5 -0.1
v 0.8 0.5 -0.1
v 0.3 0.5 -0.2
v 0.4 0.5 -0.2
v 0.5 0.5 -0.2
v 0.6 0.5 -0.2
v 0.7 0.5 -0.2
v 0.8 0.5 -0.2
v 0.3 0.5 -0.3
v 0.4 0.5 -0.3
v 0.5 0.5 -0.3
v 0.6 0.5 -0.3
v -0.2 0.6 0.2
v -0.1 0.6 0.2
v 0.3 0.6 0.2
v 0.4 0.6 0.2
v -0.7 0.6 0.1
v -0.6 0.6 0.1
v -0.2 0.6 0.1
v -0.1 0.6 0.1
v 0.3 0.6 0.1
v 0.4 0.6 0.1
v 0.5 0.6 0.1
v -0.7 0.6 0
v -0.6 0.6 0
v -0.2 0.6 0
v -0.1 0.6 0
v 0.4 0.6 0
v 0.5 0.6 0
v 0.2 0.6 -0.1
v 0.3 0.6 -0.1
v 0.2 0.6 -0.2
v 0.3 0.6 -0.2
v 0.4 0.6 -0.2
v 0.5 0.6 -0.2
v 0.2 0.6 -0.3
v 0.3 0.6 -0.3
v 0.4 0.6 -0.3
v 0.5 0.6 -0.3
v -0.1 0.7 0.3
v 0 0.7 0.3
v 0.2 0.7 0.3
v 0.3 0.7 0.3
v -0.1 0.7 0.2
v 0 0.7 0.2
v 0.2 0.7 0.2
v 0.3 0.7 0.2
v -0.8 0.7 0.1
v -0.7 0.7 0.1
v 0.3 0.7 0.1
v 0.4 0.7 0.1
v 0.7 0.7 0.1
v 0.8 0.7 0.1
v -0.8 0.7 0
v -0.7 0.7 0
v -0.2 0.7 0
v -0.1 0.7 0
v 0.3 0.7 0
v 0.4 0.7 0
v 0.7 0.7 0
v 0.8 0.7 0
v -0.2 0.7 -0.1
v -0.1 0.7 -0.1
v 0 0.7 -0.1
v 0.1 0.7 -0.1
v 0.2 0.7 -0.1
v 0.3 0.7 -0.1
v 0.5 0.7 -0.1
v 0.6 0.7 -0.1
v -0.1 0.7 -0.2
v 0 0.7 -0.2
v 0.2 0.7 -0.2
v 0.3 0.7 -0.2
v 0.4 0.7 -0.2
v 0.5 0.7 -0.2
v 0.6 0.7 -0.2
v 0 0.7 -0.3
v 0.2 0.7 -0.3
v 0.3 0.7 -0.3
v 0.4 0.7 -0.3
v -0.2 0.8 0.3
v -0.1 0.8 0.3
v 0.3 0.8 0.3
v 0.4 0.8 0.3
v -0.2 0.8 0.2
v -0.1 0.8 0.2
v 0.3 0.8 0.2
v 0.4 0.8 0.2
v -0.9 0.8 0.1
v -0.8 0.8 0.1
v -0.7 0.8 0.1
v -0.6 0.8 0.1
v -0.9 0.8 0
v -0.8 0.8 0
v -0.7 0.8 0
v -0.6 0.8 0
v 0.4 0.8 0
v 0.5 0.8 0
v -0.2 0.8 -0.1
v -0.1 0.8 -0.1
v 0.4 0.8 -0.1
v 0.5 0.8 -0.1
v -0.2 0.8 -0.2
v -0.1 0.8 -0.2
v 0 0.8 -0.2
v 0.2 0.8 -0.2
v 0.3 0.8 -0.2
v -0.1 0.8 -0.3
v 0 0.8 -0.3
v 0.2 0.8 -0.3
v 0.3 0.8 -0.3
v -0.3 0.9 0.2
v -0.2 0.9 0.2
v -0.1 0.9 0.2
v 0.3 0.9 0.2
v 0.4 0.9 0.2
v 0.5 0.9 0.2
v -0.6 0.9 0.1
v -0.5 0.9 0.1
v -0.2 0.9 0.1
v -0.1 0.9 0.1
v 0.3 0.9 0.1
v 0.4 0.9 0.1
v -0.6 0.9 0
v -0.5 0.9 0
v 0.4 0.9 0
v 0.5 0.9 0
v -0.3 0.9 -0.1
v -0.2 0.9 -0.1
v -0.1 0.9 -0.3
v 0 0.9 -0.3
v 0.2 0.9 -0.3
v 0.3 0.9 -0.3
v -0.1 0.9 -0.4
v 0 0.9 -0.4
v 0.2 0.9 -0.4
v 0.3 0.9 -0.4
v -0.3 1 0.3
v -0.2 1 0.3
v 0 1 0.3
v 0.1 1 0.3
v 0.4 1 0.3
v 0.5 1 0.3
v -0.3 1 0.2
v -0.2 1 0.2
v 0 1 0.2
v 0.1 1 0.2
v 0.4 1 0.2
v 0.5 1 0.2
v -0.3 1 -0.1
v -0.2 1 -0.1
v 0.4 1 -0.1
v 0.5 1 -0.1
v -0.3 1 -0.2
v -0.2 1 -0.2
v -0.1 1 -0.2
v 0 1 -0.2
v 0.2 1 -0.2
v 0.3 1 -0.2
v 0.4 1 -0.2
v 0.5 1 -0.2
v -0.2 1 -0.3
v -0.1 1 -0.3
v 0.3 1 -0.3
v 0.4 1 -0.3
v 0 1 -0.4
v 0.2 1 -0.4
v -0.2 1.1 0.4
v 0.1 1.1 0.4
v 0.4 1.1 0.4
v -0.2 1.1 0.3
v -0.1 1.1 0.3
v 0 1.1 0.3
v 0.1 1.1 0.3
v 0.3 1.1 0.3
v 0.4 1.1 0.3
v -0.3 1.1 0.2
v -0.2 1.1 0.2
v -0.1 1.1 0.2
v 0 1.1 0.2
v 0.1 1.1 0.2
v 0.3 1.1 0.2
v 0.4 1.1 0.2
v 0.5 1.1 0.2
v -0.3 1.1 0.1
v -0.2 1.1 0.1
v 0.4 1.1 0.1
v 0.5 1.1 0.1
v -0.3 1.1 0
v -0.2 1.1 0
v 0.4 1.1 0
v 0.5 1.1 0
v -0.3 1.1 -0.1
v -0.2 1.1 -0.1
v 0.4 1.1 -0.1
v 0.5 1.1 -0.1
v -0.8 1.2 0.1
v -0.7 1.2 0.1
v -0.3 1.2 0.1
v -0.2 1.2 0.1
v 0.4 1.2 0.1
v 0.5 1.2 0.1
v -0.8 1.2 0
v -0.7 1.2 0
v -0.3 1.2 0
v -0.2 1.2 0
v 0.4 1.2 0
v 0.5 1.2 0
v -0.3 1.3 0.2
v -0.2 1.3 0.2
v 0.4 1.3 0.2
v 0.5 1.3 0.2
v -0.7 1.3 0.1
v -0.6 1.3 0.1
v -0.3 1.3 0.1
v -0.2 1.3 0.1
v 0.4 1.3 0.1
v 0.5 1.3 0.1
v -0.7 1.3 0
v -0.6 1.3 0
v -0.3 1.3 0
v -0.2 1.3 0
v 0.4 1.3 0
v 0.5 1.3 0
v -0.3 1.3 -0.1
v -0.2 1.3 -0.1
v 0.4 1.3 -0.1
v 0.5 1.3 -0.1
v -0.4 1.4 0.1
v -0.3 1.4 0.1
v 0.5 1.4 0.1
v 0.6 1.4 0.1
v -0.4 1.4 0
v -0.3 1.4 0
v 0.5 1.4 0
v 0.6 1.4 0
v -0.2 0.5 0.3
v -0.1 0.5 0.3
v 0 0.5 0.3
v 0.1 0.5 0.3
v 0.2 0.5 0.3
v 0.3 0.5 0.3
v 0.4 0.5 0.3
v -0.2 0.5 0.2
v -0.1 0.5 0.2
v 0 0.5 0.2
v 0.1 0.5 0.2
v 0.2 0.5 0.2
v 0.3 0.5 0.2
v 0.4 0.5 0.2
v -0.4 0.5 0.1
v -0.3 0.5 0.1
v -0.2 0.5 0.1
v -0.1 0.5 0.1
v 0.3 0.5 0.1
v 0.4 0.5 0.1
v 0.5 0.5 0.1
v -0.4 0.5 0
v -0.3 0.5 0
v -0.2 0.5 0
v -0.1 0.5 0
v 0.3 0.5 0
v 0.4 0.5 0
v 0.5 0.5 0
v -0.2 0.5 -0.1
v -0.1 0.5 -0.1
v 0 0.5 -0.1
v 0.1 0.5 -0.1
v 0.2 0.5 -0.1
v 0.3 0.5 -0.1
v 0.4 0.5 -0.1
v -0.2 0.5 -0.2
v -0.1 0.5 -0.2
v 0 0.5 -0.2
v 0.1 0.5 -0.2
v 0.2 0.5 -0.2
v 0.3 0.5 -0.2
v 0.4 0.5 -0.2
v 0.5 0.5 -0.2
v 0.6 0.5 -0.2
v 0.7 0.5 -0.2
v 0.4 0.5 -0.3
v 0.5 0.5 -0.3
v 0.6 0.5 -0.3
v 0.7 0.5 -0.3
v -0.3 0.6 0.1
v -0.2 0.6 0.1
v 0.5 0.6 0.1
v 0.6 0.6 0.1
v -0.3 0.6 0
v -0.2 0.6 0
v 0.5 0.6 0
v 0.6 0.6 0
v 0.7 0.6 -0.1
v 0.8 0.6 -0.1
v 0.3 0.6 -0.2
v 0.4 0.6 -0.2
v 0.5 0.6 -0.2
v 0.6 0.6 -0.2
v 0.7 0.6 -0.2
v 0.8 0.6 -0.2
v 0.3 0.6 -0.3
v 0.4 0.6 -0.3
v 0.5 0.6 -0.3
v 0.6 0.6 -0.3
v -0.7 0.7 0.1
v -0.6 0.7 0.1
v 0.4 0.7 0.1
v 0.5 0.7 0.1
v -0.7 0.7 0
v -0.6 0.7 0
v 0.4 0.7 0
v 0.5 0.7 0
v 0.2 0.7 -0.2
v 0.3 0.7 -0.2
v 0.4 0.7 -0.2
v 0.5 0.7 -0.2
v 0.2 0.7 -0.3
v 0.3 0.7 -0.3
v 0.4 0.7 -0.3
v 0.5 0.7 -0.3
v -0.1 0.8 0.3
v 0 0.8 0.3
v 0.2 0.8 0.3
v 0.3 0.8 0.3
v -0.2 0.8 0.2
v -0.1 0.8 0.2
v 0 0.8 0.2
v 0.2 0.8 0.2
v 0.3 0.8 0.2
v 0.4 0.8 0.2
v -0.8 0.8 0.1
v -0.7 0.8 0.1
v -0.2 0.8 0.1
v -0.1 0.8 0.1
v 0.3 0.8 0.1
v 0.4 0.8 0.1
v 0.7 0.8 0.1
v 0.8 0.8 0.1
v -0.8 0.8 0
v -0.7 0.8 0
v 0.7 0.8 0
v 0.8 0.8 0
v 0.5 0.8 -0.1
v 0.6 0.8 -0.1
v 0 0.8 -0.2
v 0.2 0.8 -0.2
v 0.3 0.8 -0.2
v 0.4 0.8 -0.2
v 0.5 0.8 -0.2
v 0.6 0.8 -0.2
v 0 0.8 -0.3
v 0.2 0.8 -0.3
v 0.3 0.8 -0.3
v 0.4 0.8 -0.3
v -0.3 1 0.2
v -0.2 1 0.2
v 0.4 1 0.2
v 0.5 1 0.2
v -0.3 1 0.1
v -0.2 1 0.1
v 0.4 1 0.1
v 0.5 1 0.1
v -0.3 1 0
v -0.2 1 0
v 0.4 1 0
v 0.5 1 0
v -0.3 1 -0.1
v -0.2 1 -0.1
v 0.4 1 -0.1
v 0.5 1 -0.1
v -0.6 1.1 0.1
v -0.5 1.1 0.1
v -0.3 1.1 0.1
v -0.2 1.1 0.1
v 0.4 1.1 0.1
v 0.5 1.1 0.1
v -0.6 1.1 0
v -0.5 1.1 0
v -0.3 1.1 0
v -0.2 1.1 0
v 0.4 1.1 0
v 0.5 1.1 0
v -0.3 1.2 0.2
v -0.2 1.2 0.2
v 0.4 1.2 0.2
v 0.5 1.2 0.2
v -0.9 1.2 0.1
v -0.8 1.2 0.1
v -0.7 1.2 0.1
v -0.6 1.2 0.1
v -0.5 1.2 0.1
v -0.4 1.2 0.1
v -0.3 1.2 0.1
v -0.2 1.2 0.1
v 0.4 1.2 0.1
v 0.5 1.2 0.1
v -0.9 1.2 0
v -0.8 1.2 0
v -0.7 1.2 0
v -0.6 1.2 0
v -0.5 1.2 0
v -0.4 1.2 0
v -0.3 1.2 0
v -0.2 1.2 0
v 0.4 1.2 0
v 0.5 1.2 0
v -0.3 1.2 -0.1
v -0.2 1.2 -0.1
v 0.4 1.2 -0.1
v 0.5 1.2 -0.1
v -0.1 1.2 -0.3
v 0.3 1.2 -0.3
v -0.1 1.2 -0.4
v 0.3 1.2 -0.4
v -0.2 1.3 0.4
v 0.1 1.3 0.4
v 0.3 1.3 0.4
v 0.4 1.3 0.4
v -0.3 1.3 0.3
v -0.2 1.3 0.3
v -0.1 1.3 0.3
v 0.1 1.3 0.3
v 0.3 1.3 0.3
v 0.4 1.3 0.3
v 0.5 1.3 0.3
v -0.3 1.3 0.2
v -0.2 1.3 0.2
v 0.4 1.3 0.2
v 0.5 1.3 0.2
v -0.8 1.3 0.1
v -0.7 1.3 0.1
v -0.8 1.3 0
v -0.7 1.3 0
v -0.3 1.3 -0.1
v -0.2 1.3 -0.1
v 0.4 1.3 -0.1
v 0.5 1.3 -0.1
v -0.3 1.3 -0.2
v -0.2 1.3 -0.2
v 0.4 1.3 -0.2
v 0.5 1.3 -0.2
v -0.2 1.3 -0.3
v 0.4 1.3 -0.3
v -0.2 1.4 0.3
v -0.1 1.4 0.3
v 0.4 1.4 0.3
v -0.3 1.4 0.2
v -0.2 1.4 0.2
v -0.1 1.4 0.2
v 0 1.4 0.2
v 0.3 1.4 0.2
v 0.4 1.4 0.2
v 0.5 1.4 0.2
v -0.7 1.4 0.1
v -0.6 1.4 0.1
v -0.3 1.4 0.1
v -0.2 1.4 0.1
v 0.4 1.4 0.1
v 0.5 1.4 0.1
v -0.7 1.4 0
v -0.6 1.4 0
v -0.3 1.4 0
v -0.2 1.4 0
v 0.3 1.4 0
v 0.4 1.4 0
v 0.5 1.4 0
v -0.3 1.4 -0.1
v -0.2 1.4 -0.1
v -0.1 1.4 -0.1
v 0 1.4 -0.1
v 0.3 1.4 -0.1
v 0.4 1.4 -0.1
v 0.5 1.4 -0.1
v -0.2 1.4 -0.2
v 0.4 1.4 -0.2
v -0.1 1.5 0.2
v 0 1.5 0.2
v 0.3 1.5 0.2
v -0.3 1.5 0.1
v -0.2 1.5 0.1
v 0.4 1.5 0.1
v 0.5 1.5 0.1
v -0.3 1.5 0
v -0.2 1.5 0
v 0.4 1.5 0
v 0.5 1.5 0
v -0.1 1.5 -0.1
v 0 1.5 -0.1
v 0.3 1.5 -0.1
v -0.4 1.6 0.1
v -0.3 1.6 0.1
v 0.5 1.6 0.1
v 0.6 1.6 0.1
v -0.4 1.6 0
v -0.3 1.6 0
v 0.5 1.6 0
v 0.6 1.6 0

# faces
f 3/15/1 2/15/1 1/15/1
f 4/15/1 2/15/1 3/15/1
f 7/15/1 6/15/1 5/15/1
f 8/15/1 6/15/1 7/15/1
f 11/15/1 10/15/1 9/15/1
f 12/15/1 10/15/1 11/15/1
f 15/17/1 14/17/1 13/17/1
f 16/17/1 14/17/1 15/17/1
f 19/19/1 18/19/1 17/19/1
f 20/19/1 18/19/1 19/19/1
f 21/17/1 20/17/1 19/17/1
f 22/17/1 20/17/1 21/17/1
f 25/15/1 24/15/1 23/15/1
f 26/15/1 24/15/1 25/15/1
f 29/8/1 28/8/1 27/8/1
f 30/8/1 28/8/1 29/8/1
f 33/6/1 32/6/1 31/6/1
f 34/6/1 32/6/1 33/6/1
f 37/19/1 36/19/1 35/19/1
f 38/19/1 36/19/1 37/19/1
f 39/18/1 38/18/1 37/18/1
f 40/18/1 38/18/1 39/18/1
f 43/12/1 42/12/1 41/12/1
f 44/12/1 42/12/1 43/12/1
f 48/19/1 46/19/1 45/19/1
f 49/19/1 46/19/1 48/19/1
f 50/19/1 46/19/1 49/19/1
f 51/19/1 46/19/1 50/19/1
f 53/19/1 48/19/1 47/19/1
f 54/19/1 50/19/1 49/19/1
f 55/19/1 50/19/1 54/19/1
f 56/19/1 52/19/1 51/19/1
f 57/19/1 53/19/1 47/19/1
f 57/19/1 54/19/1 53/19/1
f 58/19/1 54/19/1 57/19/1
f 59/19/1 56/19/1 55/19/1
f 60/19/1 52/19/1 56/19/1
f 60/19/1 56/19/1 59/19/1
f 61/19/1 57/19/1 47/19/1
f 62/19/1 57/19/1 61/19/1
f 63/19/1 59/19/1 58/19/1
f 64/19/1 59/19/1 63/19/1
f 65/19/1 52/19/1 60/19/1
f 66/19/1 52/19/1 65/19/1
f 67/19/1 64/19/1 63/19/1
f 67/19/1 65/19/1 64/19/1
f 67/19/1 63/19/1 62/19/1
f 68/19/1 65/19/1 67/19/1
f 69/19/1 65/19/1 68/19/1
f 70/19/1 65/19/1 69/19/1
f 77/13/1 72/13/1 71/13/1
f 78/10/1 73/10/1 72/10/1
f 78/13/1 72/13/1 77/13/1
f 79/13/1 74/13/1 73/13/1
f 79/10/1 73/10/1 78/10/1
f 80/10/1 75/10/1 74/10/1
f 80/13/1 74/13/1 79/13/1
f 81/13/1 76/13/1 75/13/1
f 81/10/1 75/10/1 80/10/1
f 82/13/1 76/13/1 81/13/1
f 86/5/1 84/5/1 83/5/1
f 86/1/1 85/1/1 84/1/1
f 87/1/1 85/1/1 86/1/1
f 90/5/1 86/5/1 83/5/1
f 91/13/1 87/13/1 86/13/1
f 91/5/1 86/5/1 90/5/1
f 92/5/1 88/5/1 87/5/1
f 92/13/1 87/13/1 91/13/1
f 93/5/1 88/5/1 92/5/1
f 95/5/1 90/5/1 89/5/1
f 96/5/1 94/5/1 93/5/1
f 96/5/1 93/5/1 92/5/1
f 96/5/1 92/5/1 91/5/1
f 97/5/1 94/5/1 96/5/1
f 98/5/1 94/5/1 97/5/1
f 99/5/1 95/5/1 89/5/1
f 100/5/1 95/5/1 99/5/1
f 103/18/1 98/18/1 97/18/1
f 104/18/1 98/18/1 103/18/1
f 108/7/1 101/7/1 100/7/1
f 109/7/1 101/7/1 108/7/1
f 110/5/1 103/5/1 102/5/1
f 111/5/1 103/5/1 110/5/1
f 113/18/1 110/18/1 109/18/1
f 114/18/1 110/18/1 113/18/1
f 116/17/1 107/17/1 106/17/1
f 117/17/1 107/17/1 116/17/1
f 118/18/1 113/18/1 112/18/1
f 119/18/1 113/18/1 118/18/1
f 120/19/1 115/19/1 114/19/1
f 121/19/1 115/19/1 120/19/1
f 122/19/1 105/19/1 104/19/1
f 123/19/1 105/19/1 122/19/1
f 124/19/1 118/19/1 117/19/1
f 125/19/1 118/19/1 124/19/1
f 126/19/1 122/19/1 121/19/1
f 127/19/1 122/19/1 126/19/1
f 130/8/1 129/8/1 128/8/1
f 131/8/1 129/8/1 130/8/1
f 132/1/1 131/1/1 130/1/1
f 133/1/1 131/1/1 132/1/1
f 138/10/1 135/10/1 134/10/1
f 139/13/1 136/13/1 135/13/1
f 139/10/1 135/10/1 138/10/1
f 140/10/1 137/10/1 136/10/1
f 140/13/1 136/13/1 139/13/1
f 143/10/1 137/10/1 140/10/1
f 144/10/1 137/10/1 143/10/1
f 146/5/1 142/5/1 141/5/1
f 147/5/1 142/5/1 146/5/1
f 149/5/1 145/5/1 144/5/1
f 150/5/1 145/5/1 149/5/1
f 152/3/1 148/3/1 147/3/1
f 153/3/1 148/3/1 152/3/1
f 154/5/1 151/5/1 150/5/1
f 155/5/1 151/5/1 154/5/1
f 157/19/1 156/19/1 155/19/1
f 157/19/1 155/19/1 154/19/1
f 158/19/1 156/19/1 157/19/1
f 159/19/1 156/19/1 158/19/1
f 160/19/1 156/19/1 159/19/1
f 163/19/1 162/19/1 161/19/1
f 164/19/1 162/19/1 163/19/1
f 167/5/1 166/5/1 165/5/1
f 168/5/1 166/5/1 167/5/1
f 171/5/1 170/5/1 169/5/1
f 172/5/1 170/5/1 171/5/1
f 175/8/1 174/8/1 173/8/1
f 176/8/1 174/8/1 175/8/1
f 177/1/1 176/1/1 175/1/1
f 178/1/1 176/1/1 177/1/1
f 184/9/1 180/9/1 179/9/1
f 185/5/1 181/5/1 180/5/1
f 185/9/1 180/9/1 184/9/1
f 186/5/1 181/5/1 185/5/1
f 187/5/1 183/5/1 182/5/1
f 188/5/1 183/5/1 187/5/1
f 191/5/1 190/5/1 189/5/1
f 192/5/1 190/5/1 191/5/1
f 194/19/1 192/19/1 191/19/1
f 194/19/1 193/19/1 192/19/1
f 195/19/1 193/19/1 194/19/1
f 198/5/1 197/5/1 196/5/1
f 199/5/1 197/5/1 198/5/1
f 204/5/1 201/5/1 200/5/1
f 205/5/1 201/5/1 204/5/1
f 206/5/1 203/5/1 202/5/1
f 207/5/1 206/5/1 202/5/1
f 208/5/1 207/5/1 202/5/1
f 209/5/1 207/5/1 208/5/1
f 212/5/1 211/5/1 210/5/1
f 213/5/1 211/5/1 212/5/1
f 218/1/1 215/1/1 214/1/1
f 219/1/1 215/1/1 218/1/1
f 220/5/1 217/5/1 216/5/1
f 221/5/1 217/5/1 220/5/1
f 224/18/1 223/18/1 222/18/1
f 225/18/1 223/18/1 224/18/1
f 230/1/1 227/1/1 226/1/1
f 231/1/1 227/1/1 230/1/1
f 232/5/1 229/5/1 228/5/1
f 233/5/1 229/5/1 232/5/1
f 236/5/1 235/5/1 234/5/1
f 237/5/1 235/5/1 236/5/1
f 240/17/1 239/17/1 238/17/1
f 241/17/1 239/17/1 240/17/1
f 244/5/1 243/5/1 242/5/1
f 245/5/1 243/5/1 244/5/1
f 248/5/1 247/5/1 246/5/1
f 249/5/1 247/5/1 248/5/1
f 252/5/1 251/5/1 250/5/1
f 253/5/1 251/5/1 252/5/1
f 254/15/2 255/15/2 256/15/2
f 256/15/2 255/15/2 257/15/2
f 258/15/2 259/15/2 260/15/2
f 260/15/2 259/15/2 261/15/2
f 262/15/2 263/15/2 264/15/2
f 264/15/2 263/15/2 265/15/2
f 266/17/2 267/17/2 268/17/2
f 268/17/2 267/17/2 269/17/2
f 270/19/2 271/19/2 272/19/2
f 272/19/2 271/19/2 273/19/2
f 274/17/2 275/17/2 276/17/2
f 276/17/2 275/17/2 277/17/2
f 278/15/2 279/15/2 280/15/2
f 280/15/2 279/15/2 281/15/2
f 282/8/2 283/8/2 284/8/2
f 284/8/2 283/8/2 285/8/2
f 286/8/2 287/8/2 288/8/2
f 288/8/2 287/8/2 289/8/2
f 288/6/2 289/6/2 290/6/2
f 290/6/2 289/6/2 291/6/2
f 290/20/2 291/20/2 292/20/2
f 292/20/2 291/20/2 293/20/2
f 292/6/2 293/6/2 294/6/2
f 294/6/2 293/6/2 295/6/2
f 296/1/2 297/1/2 298/1/2
f 298/1/2 297/1/2 299/1/2
f 300/18/2 301/18/2 302/18/2
f 302/18/2 301/18/2 303/18/2
f 304/12/2 305/12/2 306/12/2
f 306/12/2 305/12/2 307/12/2
f 308/19/2 309/19/2 310/19/2
f 310/19/2 309/19/2 311/19/2
f 312/5/2 313/5/2 314/5/2
f 312/5/2 314/5/2 315/5/2
f 312/5/2 315/5/2 316/5/2
f 316/5/2 315/5/2 317/5/2
f 318/8/2 319/8/2 320/8/2
f 320/8/2 319/8/2 321/8/2
f 320/1/2 321/1/2 322/1/2
f 322/1/2 321/1/2 323/1/2
f 324/5/2 325/5/2 326/5/2
f 326/5/2 325/5/2 327/5/2
f 328/5/2 329/5/2 330/5/2
f 330/5/2 329/5/2 331/5/2
f 330/19/2 331/19/2 333/19/2
f 331/19/2 332/19/2 333/19/2
f 333/19/2 332/19/2 334/19/2
f 335/5/2 336/5/2 337/5/2
f 337/5/2 336/5/2 338/5/2
f 339/5/2 340/5/2 341/5/2
f 341/5/2 340/5/2 342/5/2
f 343/8/2 344/8/2 345/8/2
f 345/8/2 344/8/2 346/8/2
f 345/1/2 346/1/2 347/1/2
f 347/1/2 346/1/2 348/1/2
f 349/13/2 350/13/2 353/13/2
f 350/10/2 351/10/2 354/10/2
f 353/13/2 350/13/2 354/13/2
f 351/13/2 352/13/2 355/13/2
f 354/10/2 351/10/2 355/10/2
f 355/13/2 352/13/2 356/13/2
f 354/12/2 355/12/2 361/12/2
f 355/12/2 356/12/2 361/12/2
f 361/12/2 356/12/2 362/12/2
f 356/9/2 357/9/2 363/9/2
f 362/12/2 356/12/2 363/12/2
f 357/5/2 358/5/2 364/5/2
f 363/9/2 357/9/2 364/9/2
f 364/5/2 358/5/2 365/5/2
f 359/5/2 360/5/2 366/5/2
f 366/5/2 360/5/2 367/5/2
f 367/1/2 368/1/2 371/1/2
f 371/1/2 368/1/2 372/1/2
f 369/5/2 370/5/2 373/5/2
f 373/5/2 370/5/2 374/5/2
f 373/19/2 374/19/2 376/19/2
f 374/19/2 375/19/2 376/19/2
f 376/19/2 375/19/2 377/19/2
f 377/19/2 375/19/2 378/19/2
f 378/19/2 375/19/2 379/19/2
f 380/18/2 381/18/2 383/18/2
f 381/18/2 382/18/2 383/18/2
f 383/18/2 382/18/2 384/18/2
f 385/10/2 386/10/2 391/10/2
f 386/13/2 387/13/2 392/13/2
f 391/10/2 386/10/2 392/10/2
f 392/13/2 387/13/2 393/13/2
f 388/13/2 389/13/2 394/13/2
f 389/10/2 390/10/2 395/10/2
f 394/13/2 389/13/2 395/13/2
f 395/10/2 390/10/2 396/10/2
f 396/5/2 397/5/2 400/5/2
f 400/5/2 397/5/2 401/5/2
f 398/5/2 399/5/2 402/5/2
f 398/5/2 402/5/2 407/5/2
f 402/13/2 403/13/2 408/13/2
f 407/5/2 402/5/2 408/5/2
f 404/5/2 405/5/2 409/5/2
f 408/13/2 403/13/2 409/13/2
f 403/5/2 404/5/2 409/5/2
f 409/5/2 405/5/2 410/5/2
f 410/5/2 405/5/2 411/5/2
f 411/5/2 405/5/2 412/5/2
f 406/5/2 407/5/2 413/5/2
f 408/4/2 409/4/2 414/4/2
f 414/4/2 409/4/2 415/4/2
f 410/5/2 411/5/2 416/5/2
f 416/5/2 411/5/2 417/5/2
f 406/5/2 413/5/2 418/5/2
f 418/5/2 413/5/2 419/5/2
f 416/18/2 417/18/2 422/18/2
f 422/18/2 417/18/2 423/18/2
f 419/7/2 420/7/2 427/7/2
f 427/7/2 420/7/2 428/7/2
f 421/5/2 422/5/2 429/5/2
f 429/5/2 422/5/2 430/5/2
f 425/16/2 426/16/2 431/16/2
f 431/16/2 426/16/2 432/16/2
f 428/18/2 429/18/2 434/18/2
f 434/18/2 429/18/2 435/18/2
f 431/14/2 432/14/2 437/14/2
f 437/14/2 432/14/2 438/14/2
f 433/18/2 434/18/2 439/18/2
f 439/18/2 434/18/2 440/18/2
f 435/18/2 436/18/2 441/18/2
f 441/18/2 436/18/2 442/18/2
f 423/19/2 424/19/2 443/19/2
f 443/19/2 424/19/2 444/19/2
f 438/18/2 439/18/2 445/18/2
f 445/18/2 439/18/2 446/18/2
f 442/19/2 443/19/2 447/19/2
f 447/19/2 443/19/2 448/19/2
f 449/1/2 450/1/2 453/1/2
f 453/1/2 450/1/2 454/1/2
f 451/5/2 452/5/2 455/5/2
f 455/5/2 452/5/2 456/5/2
f 457/1/2 458/1/2 461/1/2
f 461/1/2 458/1/2 462/1/2
f 459/5/2 460/5/2 463/5/2
f 463/5/2 460/5/2 464/5/2
f 465/5/2 466/5/2 468/5/2
f 468/5/2 466/5/2 469/5/2
f 467/18/2 468/18/2 471/18/2
f 468/18/2 469/18/2 471/18/2
f 471/18/2 469/18/2 472/18/2
f 472/18/2 469/18/2 473/18/2
f 473/18/2 469/18/2 474/18/2
f 470/18/2 471/18/2 476/18/2
f 472/18/2 473/18/2 477/18/2
f 477/18/2 473/18/2 478/18/2
f 474/18/2 475/18/2 479/18/2
f 470/18/2 476/18/2 480/18/2
f 476/18/2 477/18/2 480/18/2
f 480/18/2 477/18/2 481/18/2
f 478/18/2 479/18/2 482/18/2
f 479/18/2 475/18/2 483/18/2
f 482/18/2 479/18/2 483/18/2
f 470/18/2 480/18/2 484/18/2
f 484/18/2 480/18/2 485/18/2
f 481/18/2 482/18/2 486/18/2
f 486/18/2 482/18/2 487/18/2
f 483/18/2 475/18/2 488/18/2
f 488/18/2 475/18/2 489/18/2
f 486/18/2 487/18/2 490/18/2
f 487/18/2 488/18/2 490/18/2
f 485/18/2 486/18/2 490/18/2
f 490/18/2 488/18/2 491/18/2
f 491/18/2 488/18/2 492/18/2
f 492/18/2 488/18/2 493/18/2
f 494/1/2 495/1/2 498/1/2
f 498/1/2 495/1/2 499/1/2
f 496/5/2 497/5/2 500/5/2
f 500/5/2 497/5/2 501/5/2
f 502/5/2 503/5/2 504/5/2
f 504/5/2 503/5/2 505/5/2
f 506/18/2 507/18/2 508/18/2
f 508/18/2 507/18/2 509/18/2
f 508/17/2 509/17/2 510/17/2
f 510/17/2 509/17/2 511/17/2
f 512/5/2 513/5/2 514/5/2
f 514/5/2 513/5/2 515/5/2
f 516/5/2 517/5/2 518/5/2
f 518/5/2 517/5/2 519/5/2
f 520/5/2 521/5/2 522/5/2
f 522/5/2 521/5/2 523/5/2
f 526/17/3 525/17/3 524/17/3
f 527/17/3 525/17/3 526/17/3
f 528/16/3 527/16/3 526/16/3
f 529/16/3 527/16/3 528/16/3
f 530/16/3 528/16/3 526/16/3
f 531/14/3 529/14/3 528/14/3
f 531/16/3 528/16/3 530/16/3
f 532/14/3 529/14/3 531/14/3
f 538/19/3 534/19/3 533/19/3
f 539/19/3 534/19/3 538/19/3
f 540/19/3 534/19/3 539/19/3
f 542/13/3 536/13/3 535/13/3
f 543/13/3 536/13/3 542/13/3
f 545/5/3 538/5/3 537/5/3
f 545/5/3 539/5/3 538/5/3
f 546/5/3 539/5/3 545/5/3
f 547/19/3 541/19/3 540/19/3
f 548/19/3 541/19/3 547/19/3
f 549/10/3 543/10/3 542/10/3
f 550/10/3 543/10/3 549/10/3
f 551/5/3 545/5/3 544/5/3
f 552/5/3 545/5/3 551/5/3
f 555/13/3 550/13/3 549/13/3
f 556/13/3 550/13/3 555/13/3
f 557/5/3 554/5/3 553/5/3
f 558/5/3 554/5/3 557/5/3
f 559/18/3 548/18/3 547/18/3
f 560/10/3 556/10/3 555/10/3
f 561/10/3 556/10/3 560/10/3
f 564/13/3 561/13/3 560/13/3
f 565/13/3 561/13/3 564/13/3
f 566/5/3 563/5/3 562/5/3
f 567/5/3 563/5/3 566/5/3
f 569/18/3 548/18/3 559/18/3
f 570/10/3 565/10/3 564/10/3
f 571/10/3 565/10/3 570/10/3
f 572/5/3 568/5/3 567/5/3
f 573/5/3 568/5/3 572/5/3
f 574/5/3 568/5/3 573/5/3
f 576/18/3 548/18/3 569/18/3
f 577/18/3 548/18/3 576/18/3
f 578/18/3 575/18/3 574/18/3
f 578/18/3 576/18/3 575/18/3
f 578/18/3 574/18/3 573/18/3
f 579/18/3 576/18/3 578/18/3
f 586/19/3 581/19/3 580/19/3
f 587/19/3 581/19/3 586/19/3
f 588/19/3 583/19/3 582/19/3
f 589/19/3 583/19/3 588/19/3
f 591/5/3 585/5/3 584/5/3
f 592/5/3 585/5/3 591/5/3
f 593/5/3 585/5/3 592/5/3
f 599/10/3 591/10/3 590/10/3
f 599/10/3 592/10/3 591/10/3
f 600/10/3 592/10/3 599/10/3
f 601/3/3 594/3/3 593/3/3
f 602/21/3 595/21/3 594/21/3
f 602/3/3 594/3/3 601/3/3
f 603/5/3 596/5/3 595/5/3
f 603/21/3 595/21/3 602/21/3
f 604/5/3 596/5/3 603/5/3
f 605/19/3 598/19/3 597/19/3
f 606/19/3 598/19/3 605/19/3
f 607/13/3 600/13/3 599/13/3
f 608/11/3 601/11/3 600/11/3
f 608/13/3 600/13/3 607/13/3
f 609/3/3 602/3/3 601/3/3
f 609/11/3 601/11/3 608/11/3
f 610/1/3 603/1/3 602/1/3
f 610/3/3 602/3/3 609/3/3
f 611/1/3 603/1/3 610/1/3
f 613/10/3 608/10/3 607/10/3
f 613/10/3 609/10/3 608/10/3
f 614/10/3 609/10/3 613/10/3
f 615/10/3 609/10/3 614/10/3
f 616/1/3 611/1/3 610/1/3
f 616/10/3 609/10/3 615/10/3
f 616/1/3 610/1/3 609/1/3
f 617/1/3 611/1/3 616/1/3
f 618/5/3 612/5/3 611/5/3
f 618/1/3 611/1/3 617/1/3
f 619/13/3 614/13/3 613/13/3
f 620/10/3 615/10/3 614/10/3
f 620/13/3 614/13/3 619/13/3
f 621/10/3 615/10/3 620/10/3
f 622/1/3 617/1/3 616/1/3
f 623/21/3 618/21/3 617/21/3
f 623/1/3 617/1/3 622/1/3
f 624/5/3 612/5/3 618/5/3
f 624/21/3 618/21/3 623/21/3
f 625/5/3 612/5/3 624/5/3
f 626/18/3 606/18/3 605/18/3
f 627/18/3 606/18/3 626/18/3
f 628/5/3 621/5/3 620/5/3
f 628/5/3 622/5/3 621/5/3
f 629/5/3 622/5/3 628/5/3
f 634/18/3 631/18/3 630/18/3
f 635/18/3 631/18/3 634/18/3
f 636/18/3 633/18/3 632/18/3
f 637/18/3 633/18/3 636/18/3
f 641/15/3 639/15/3 638/15/3
f 642/15/3 639/15/3 641/15/3
f 645/15/3 641/15/3 640/15/3
f 646/15/3 641/15/3 645/15/3
f 648/15/3 643/15/3 642/15/3
f 649/15/3 643/15/3 648/15/3
f 651/17/3 645/17/3 644/17/3
f 652/17/3 645/17/3 651/17/3
f 653/19/3 647/19/3 646/19/3
f 654/19/3 647/19/3 653/19/3
f 655/17/3 648/17/3 647/17/3
f 655/19/3 647/19/3 654/19/3
f 656/17/3 648/17/3 655/17/3
f 657/17/3 648/17/3 656/17/3
f 658/15/3 650/15/3 649/15/3
f 659/15/3 650/15/3 658/15/3
f 661/20/3 656/20/3 655/20/3
f 661/20/3 655/20/3 654/20/3
f 662/20/3 656/20/3 661/20/3
f 663/20/3 656/20/3 662/20/3
f 665/8/3 661/8/3 660/8/3
f 666/8/3 661/8/3 665/8/3
f 667/8/3 661/8/3 666/8/3
f 668/6/3 662/6/3 661/6/3
f 668/8/3 661/8/3 667/8/3
f 669/20/3 663/20/3 662/20/3
f 669/6/3 662/6/3 668/6/3
f 670/6/3 664/6/3 663/6/3
f 670/20/3 663/20/3 669/20/3
f 671/6/3 664/6/3 670/6/3
f 675/1/3 667/1/3 666/1/3
f 676/1/3 667/1/3 675/1/3
f 682/19/3 673/19/3 672/19/3
f 683/18/3 674/18/3 673/18/3
f 683/19/3 673/19/3 682/19/3
f 684/18/3 674/18/3 683/18/3
f 685/12/3 677/12/3 676/12/3
f 686/12/3 677/12/3 685/12/3
f 689/19/3 679/19/3 678/19/3
f 690/19/3 679/19/3 689/19/3
f 691/19/3 681/19/3 680/19/3
f 692/19/3 681/19/3 691/19/3
f 693/19/3 683/19/3 682/19/3
f 694/19/3 683/19/3 693/19/3
f 698/5/3 688/5/3 687/5/3
f 699/5/3 688/5/3 698/5/3
f 700/8/3 696/8/3 695/8/3
f 701/1/3 697/1/3 696/1/3
f 701/8/3 696/8/3 700/8/3
f 702/1/3 697/1/3 701/1/3
f 706/8/3 704/8/3 703/8/3
f 707/1/3 705/1/3 704/1/3
f 707/8/3 704/8/3 706/8/3
f 708/1/3 705/1/3 707/1/3
f 715/4/3 710/4/3 709/4/3
f 716/4/3 710/4/3 715/4/3
f 723/1/3 712/1/3 711/1/3
f 724/1/3 712/1/3 723/1/3
f 725/1/3 714/1/3 713/1/3
f 726/1/3 714/1/3 725/1/3
f 727/18/3 718/18/3 717/18/3
f 728/18/3 718/18/3 727/18/3
f 729/18/3 720/18/3 719/18/3
f 730/18/3 720/18/3 729/18/3
f 731/18/3 722/18/3 721/18/3
f 732/18/3 722/18/3 731/18/3
f 734/1/3 725/1/3 724/1/3
f 735/1/3 725/1/3 734/1/3
f 736/18/3 732/18/3 731/18/3
f 737/17/3 733/17/3 732/17/3
f 737/18/3 732/18/3 736/18/3
f 738/17/3 733/17/3 737/17/3
f 741/5/3 740/5/3 739/5/3
f 742/5/3 740/5/3 741/5/3
f 745/19/3 744/19/3 743/19/3
f 746/19/3 744/19/3 745/19/3
f 751/5/3 748/5/3 747/5/3
f 752/5/3 748/5/3 751/5/3
f 753/18/3 750/18/3 749/18/3
f 754/18/3 750/18/3 753/18/3
f 759/19/3 756/19/3 755/19/3
f 760/19/3 756/19/3 759/19/3
f 761/19/3 758/19/3 757/19/3
f 762/19/3 758/19/3 761/19/3
f 769/18/3 764/18/3 763/18/3
f 770/18/3 764/18/3 769/18/3
f 771/18/3 766/18/3 765/18/3
f 772/18/3 766/18/3 771/18/3
f 773/5/3 768/5/3 767/5/3
f 774/5/3 768/5/3 773/5/3
f 777/5/3 776/5/3 775/5/3
f 778/5/3 776/5/3 777/5/3
f 782/5/3 780/5/3 779/5/3
f 783/5/3 780/5/3 782/5/3
f 785/5/3 782/5/3 781/5/3
f 786/5/3 782/5/3 785/5/3
f 787/5/3 784/5/3 783/5/3
f 788/5/3 784/5/3 787/5/3
f 790/5/3 787/5/3 786/5/3
f 791/5/3 787/5/3 790/5/3
f 792/5/3 790/5/3 789/5/3
f 793/5/3 790/5/3 792/5/3
f 794/19/4 795/19/4 800/19/4
f 800/19/4 795/19/4 801/19/4
f 796/19/4 797/19/4 802/19/4
f 802/19/4 797/19/4 803/19/4
f 798/5/4 799/5/4 804/5/4
f 804/5/4 799/5/4 805/5/4
f 806/5/4 807/5/4 808/5/4
f 808/5/4 807/5/4 809/5/4
f 810/18/4 811/18/4 814/18/4
f 814/18/4 811/18/4 815/18/4
f 812/18/4 813/18/4 816/18/4
f 816/18/4 813/18/4 817/18/4
f 818/19/4 819/19/4 820/19/4
f 820/19/4 819/19/4 821/19/4
f 822/5/4 823/5/4 824/5/4
f 824/5/4 823/5/4 825/5/4
f 826/18/4 827/18/4 828/18/4
f 828/18/4 827/18/4 829/18/4
f 830/15/4 831/15/4 833/15/4
f 833/15/4 831/15/4 834/15/4
f 832/15/4 833/15/4 837/15/4
f 837/15/4 833/15/4 838/15/4
f 834/15/4 835/15/4 840/15/4
f 840/15/4 835/15/4 841/15/4
f 836/17/4 837/17/4 843/17/4
f 843/17/4 837/17/4 844/17/4
f 838/19/4 839/19/4 845/19/4
f 845/19/4 839/19/4 846/19/4
f 839/17/4 840/17/4 847/17/4
f 846/19/4 839/19/4 847/19/4
f 847/17/4 840/17/4 848/17/4
f 848/17/4 840/17/4 849/17/4
f 841/15/4 842/15/4 850/15/4
f 850/15/4 842/15/4 851/15/4
f 847/20/4 848/20/4 853/20/4
f 846/20/4 847/20/4 853/20/4
f 853/20/4 848/20/4 854/20/4
f 854/20/4 848/20/4 855/20/4
f 852/8/4 853/8/4 857/8/4
f 857/8/4 853/8/4 858/8/4
f 858/8/4 853/8/4 859/8/4
f 853/6/4 854/6/4 860/6/4
f 859/8/4 853/8/4 860/8/4
f 854/20/4 855/20/4 861/20/4
f 860/6/4 854/6/4 861/6/4
f 855/6/4 856/6/4 862/6/4
f 861/20/4 855/20/4 862/20/4
f 862/6/4 856/6/4 863/6/4
f 858/1/4 859/1/4 867/1/4
f 867/1/4 859/1/4 868/1/4
f 864/19/4 865/19/4 874/19/4
f 865/18/4 866/18/4 875/18/4
f 874/19/4 865/19/4 875/19/4
f 875/18/4 866/18/4 876/18/4
f 868/12/4 869/12/4 877/12/4
f 877/12/4 869/12/4 878/12/4
f 870/19/4 871/19/4 880/19/4
f 880/19/4 871/19/4 881/19/4
f 872/19/4 873/19/4 882/19/4
f 882/19/4 873/19/4 883/19/4
f 874/19/4 875/19/4 884/19/4
f 884/19/4 875/19/4 885/19/4
f 878/1/4 879/1/4 889/1/4
f 889/1/4 879/1/4 890/1/4
f 886/8/4 887/8/4 891/8/4
f 887/1/4 888/1/4 892/1/4
f 891/8/4 887/8/4 892/8/4
f 892/1/4 888/1/4 893/1/4
f 894/8/4 895/8/4 897/8/4
f 895/1/4 896/1/4 898/1/4
f 897/8/4 895/8/4 898/8/4
f 898/1/4 896/1/4 899/1/4
f 900/1/4 901/1/4 910/1/4
f 910/1/4 901/1/4 911/1/4
f 902/1/4 903/1/4 912/1/4
f 912/1/4 903/1/4 913/1/4
f 904/18/4 905/18/4 914/18/4
f 914/18/4 905/18/4 915/18/4
f 906/18/4 907/18/4 916/18/4
f 916/18/4 907/18/4 917/18/4
f 908/18/4 909/18/4 918/18/4
f 918/18/4 909/18/4 919/18/4
f 911/1/4 912/1/4 921/1/4
f 921/1/4 912/1/4 922/1/4
f 918/18/4 919/18/4 923/18/4
f 919/17/4 920/17/4 924/17/4
f 923/18/4 919/18/4 924/18/4
f 924/17/4 920/17/4 925/17/4
f 926/5/4 927/5/4 928/5/4
f 928/5/4 927/5/4 929/5/4
f 930/19/4 931/19/4 936/19/4
f 936/19/4 931/19/4 937/19/4
f 932/19/4 933/19/4 938/19/4
f 938/19/4 933/19/4 939/19/4
f 934/5/4 935/5/4 941/5/4
f 941/5/4 935/5/4 942/5/4
f 940/10/4 941/10/4 945/10/4
f 945/10/4 941/10/4 946/10/4
f 943/19/4 944/19/4 947/19/4
f 947/19/4 944/19/4 948/19/4
f 945/13/4 946/13/4 949/13/4
f 949/13/4 946/13/4 950/13/4
f 949/10/4 950/10/4 951/10/4
f 951/10/4 950/10/4 952/10/4
f 952/10/4 950/10/4 953/10/4
f 951/13/4 952/13/4 954/13/4
f 954/13/4 952/13/4 955/13/4
f 947/18/4 948/18/4 956/18/4
f 956/18/4 948/18/4 957/18/4
f 958/5/4 959/5/4 963/5/4
f 959/18/4 960/18/4 964/18/4
f 963/5/4 959/5/4 964/5/4
f 964/18/4 960/18/4 965/18/4
f 961/18/4 962/18/4 966/18/4
f 966/18/4 962/18/4 967/18/4
f 968/19/4 969/19/4 974/19/4
f 974/19/4 969/19/4 975/19/4
f 970/13/4 971/13/4 977/13/4
f 977/13/4 971/13/4 978/13/4
f 972/5/4 973/5/4 980/5/4
f 973/18/4 974/18/4 981/18/4
f 980/5/4 973/5/4 981/5/4
f 981/18/4 974/18/4 982/18/4
f 977/10/4 978/10/4 983/10/4
f 983/10/4 978/10/4 984/10/4
f 979/5/4 980/5/4 985/5/4
f 985/5/4 980/5/4 986/5/4
f 983/13/4 984/13/4 989/13/4
f 989/13/4 984/13/4 990/13/4
f 989/10/4 990/10/4 991/10/4
f 991/10/4 990/10/4 992/10/4
f 986/5/4 987/5/4 994/5/4
f 987/19/4 988/19/4 995/19/4
f 994/5/4 987/5/4 995/5/4
f 995/19/4 988/19/4 996/19/4
f 991/13/4 992/13/4 997/13/4
f 997/13/4 992/13/4 998/13/4
f 993/4/4 994/4/4 999/4/4
f 999/4/4 994/4/4 1000/4/4
f 997/10/4 998/10/4 1003/10/4
f 1003/10/4 998/10/4 1004/10/4
f 1000/5/4 1001/5/4 1005/5/4
f 1001/18/4 1002/18/4 1006/18/4
f 1005/5/4 1001/5/4 1006/5/4
f 1006/18/4 1002/18/4 1007/18/4
f 975/19/4 976/19/4 1008/19/4
f 1008/19/4 976/19/4 1009/19/4
f 1007/18/4 1008/18/4 1012/18/4
f 1012/18/4 1008/18/4 1013/18/4
f 1010/5/4 1011/5/4 1014/5/4
f 1014/5/4 1011/5/4 1015/5/4
f 1016/5/4 1017/5/4 1018/5/4
f 1018/5/4 1017/5/4 1019/5/4
f 1020/19/4 1021/19/4 1024/19/4
f 1024/19/4 1021/19/4 1025/19/4
f 1022/5/4 1023/5/4 1027/5/4
f 1027/5/4 1023/5/4 1028/5/4
f 1026/5/4 1027/5/4 1030/5/4
f 1030/5/4 1027/5/4 1031/5/4
f 1029/5/4 1030/5/4 1034/5/4
f 1034/5/4 1030/5/4 1035/5/4
f 1031/5/4 1032/5/4 1036/5/4
f 1036/5/4 1032/5/4 1037/5/4
f 1025/19/4 1021/19/4 1039/19/4
f 1033/5/4 1034/5/4 1041/5/4
f 1041/5/4 1034/5/4 1042/5/4
f 1035/5/4 1036/5/4 1043/5/4
f 1043/5/4 1036/5/4 1044/5/4
f 1038/19/4 1039/19/4 1045/19/4
f 1039/19/4 1021/19/4 1046/19/4
f 1045/19/4 1039/19/4 1046/19/4
f 1040/5/4 1041/5/4 1047/5/4
f 1047/5/4 1041/5/4 1048/5/4
f 1042/5/4 1043/5/4 1049/5/4
f 1049/5/4 1043/5/4 1050/5/4
f 1048/5/4 1049/5/4 1052/5/4
f 1052/5/4 1049/5/4 1053/5/4
f 1051/5/4 1052/5/4 1054/5/4
f 1054/5/4 1052/5/4 1055/5/4
f 1056/19/4 1057/19/4 1058/19/4
f 1058/19/4 1057/19/4 1059/19/4
f 1059/19/4 1057/19/4 1061/19/4
f 1060/19/4 1061/19/4 1062/19/4
f 1061/19/4 1057/19/4 1063/19/4
f 1062/19/4 1061/19/4 1063/19/4
f 1070/8/5 1065/8/5 1064/8/5
f 1071/8/5 1065/8/5 1070/8/5
f 1072/8/5 1067/8/5 1066/8/5
f 1073/8/5 1067/8/5 1072/8/5
f 1074/8/5 1069/8/5 1068/8/5
f 1075/8/5 1069/8/5 1074/8/5
f 1083/13/5 1077/13/5 1076/13/5
f 1084/10/5 1078/10/5 1077/10/5
f 1084/13/5 1077/13/5 1083/13/5
f 1085/10/5 1082/10/5 1081/10/5
f 1085/13/5 1081/13/5 1080/13/5
f 1086/10/5 1082/10/5 1085/10/5
f 1089/10/5 1084/10/5 1083/10/5
f 1090/10/5 1078/10/5 1084/10/5
f 1090/10/5 1084/10/5 1089/10/5
f 1091/13/5 1079/13/5 1078/13/5
f 1091/10/5 1078/10/5 1090/10/5
f 1092/10/5 1080/10/5 1079/10/5
f 1092/13/5 1085/13/5 1080/13/5
f 1092/13/5 1086/13/5 1085/13/5
f 1093/13/5 1086/13/5 1092/13/5
f 1094/13/5 1086/13/5 1093/13/5
f 1096/1/5 1088/1/5 1087/1/5
f 1097/1/5 1088/1/5 1096/1/5
f 1098/13/5 1090/13/5 1089/13/5
f 1099/13/5 1090/13/5 1098/13/5
f 1100/13/5 1079/13/5 1091/13/5
f 1101/10/5 1092/10/5 1079/10/5
f 1102/10/5 1094/10/5 1093/10/5
f 1103/1/5 1095/1/5 1094/1/5
f 1103/10/5 1094/10/5 1102/10/5
f 1104/1/5 1095/1/5 1103/1/5
f 1105/10/5 1099/10/5 1098/10/5
f 1105/10/5 1100/10/5 1099/10/5
f 1106/10/5 1100/10/5 1105/10/5
f 1107/13/5 1103/13/5 1102/13/5
f 1107/13/5 1102/13/5 1101/13/5
f 1108/13/5 1103/13/5 1107/13/5
f 1109/13/5 1106/13/5 1105/13/5
f 1110/10/5 1100/10/5 1106/10/5
f 1110/13/5 1106/13/5 1109/13/5
f 1111/13/5 1079/13/5 1100/13/5
f 1111/10/5 1100/10/5 1110/10/5
f 1112/10/5 1101/10/5 1079/10/5
f 1112/13/5 1079/13/5 1111/13/5
f 1113/13/5 1107/13/5 1101/13/5
f 1113/10/5 1101/10/5 1112/10/5
f 1114/10/5 1108/10/5 1107/10/5
f 1114/13/5 1107/13/5 1113/13/5
f 1115/10/5 1108/10/5 1114/10/5
f 1119/5/5 1116/5/5 1115/5/5
f 1120/5/5 1116/5/5 1119/5/5
f 1121/5/5 1118/5/5 1117/5/5
f 1122/5/5 1118/5/5 1121/5/5
f 1127/12/5 1124/12/5 1123/12/5
f 1128/12/5 1124/12/5 1127/12/5
f 1129/1/5 1126/1/5 1125/1/5
f 1130/1/5 1126/1/5 1129/1/5
f 1137/5/5 1132/5/5 1131/5/5
f 1138/5/5 1132/5/5 1137/5/5
f 1139/5/5 1134/5/5 1133/5/5
f 1140/5/5 1134/5/5 1139/5/5
f 1141/5/5 1136/5/5 1135/5/5
f 1142/5/5 1136/5/5 1141/5/5
f 1149/5/5 1144/5/5 1143/5/5
f 1150/5/5 1144/5/5 1149/5/5
f 1151/5/5 1146/5/5 1145/5/5
f 1152/5/5 1146/5/5 1151/5/5
f 1154/17/5 1148/17/5 1147/17/5
f 1155/17/5 1148/17/5 1154/17/5
f 1156/1/5 1150/1/5 1149/1/5
f 1157/1/5 1150/1/5 1156/1/5
f 1158/1/5 1153/1/5 1152/1/5
f 1159/1/5 1153/1/5 1158/1/5
f 1162/9/5 1161/9/5 1160/9/5
f 1163/9/5 1161/9/5 1162/9/5
f 1166/5/5 1163/5/5 1162/5/5
f 1167/5/5 1163/5/5 1166/5/5
f 1168/5/5 1165/5/5 1164/5/5
f 1169/5/5 1165/5/5 1168/5/5
f 1174/5/5 1171/5/5 1170/5/5
f 1175/5/5 1171/5/5 1174/5/5
f 1176/5/5 1173/5/5 1172/5/5
f 1177/5/5 1173/5/5 1176/5/5
f 1184/15/5 1179/15/5 1178/15/5
f 1185/15/5 1179/15/5 1184/15/5
f 1188/13/5 1181/13/5 1180/13/5
f 1189/13/5 1181/13/5 1188/13/5
f 1190/5/5 1183/5/5 1182/5/5
f 1191/5/5 1183/5/5 1190/5/5
f 1192/5/5 1187/5/5 1186/5/5
f 1193/5/5 1187/5/5 1192/5/5
f 1197/5/5 1189/5/5 1188/5/5
f 1200/5/5 1196/5/5 1195/5/5
f 1200/5/5 1194/5/5 1193/5/5
f 1200/5/5 1195/5/5 1194/5/5
f 1201/5/5 1196/5/5 1200/5/5
f 1202/5/5 1196/5/5 1201/5/5
f 1203/5/5 1189/5/5 1197/5/5
f 1204/5/5 1189/5/5 1203/5/5
f 1205/5/5 1199/5/5 1198/5/5
f 1206/5/5 1199/5/5 1205/5/5
f 1207/5/5 1202/5/5 1201/5/5
f 1208/5/5 1202/5/5 1207/5/5
f 1209/5/5 1204/5/5 1203/5/5
f 1210/5/5 1204/5/5 1209/5/5
f 1215/5/5 1212/5/5 1211/5/5
f 1216/5/5 1212/5/5 1215/5/5
f 1217/5/5 1214/5/5 1213/5/5
f 1218/5/5 1214/5/5 1217/5/5
f 1223/15/5 1220/15/5 1219/15/5
f 1224/15/5 1220/15/5 1223/15/5
f 1225/19/5 1222/19/5 1221/19/5
f 1226/19/5 1222/19/5 1225/19/5
f 1231/5/5 1228/5/5 1227/5/5
f 1232/5/5 1228/5/5 1231/5/5
f 1233/5/5 1230/5/5 1229/5/5
f 1234/5/5 1230/5/5 1233/5/5
f 1238/5/5 1235/5/5 1234/5/5
f 1239/5/5 1235/5/5 1238/5/5
f 1240/5/5 1237/5/5 1236/5/5
f 1241/5/5 1237/5/5 1240/5/5
f 1250/19/5 1243/19/5 1242/19/5
f 1250/2/5 1244/2/5 1243/2/5
f 1251/2/5 1244/2/5 1250/2/5
f 1252/5/5 1246/5/5 1245/5/5
f 1253/18/5 1247/18/5 1246/18/5
f 1253/5/5 1246/5/5 1252/5/5
f 1254/20/5 1249/20/5 1248/20/5
f 1255/20/5 1249/20/5 1254/20/5
f 1256/18/5 1247/18/5 1253/18/5
f 1257/18/5 1247/18/5 1256/18/5
f 1258/19/5 1250/19/5 1242/19/5
f 1259/19/5 1250/19/5 1258/19/5
f 1264/19/5 1261/19/5 1260/19/5
f 1265/19/5 1261/19/5 1264/19/5
f 1266/19/5 1263/19/5 1262/19/5
f 1267/19/5 1263/19/5 1266/19/5
f 1274/19/5 1269/19/5 1268/19/5
f 1275/19/5 1269/19/5 1274/19/5
f 1276/5/5 1271/5/5 1270/5/5
f 1277/5/5 1271/5/5 1276/5/5
f 1278/18/5 1273/18/5 1272/18/5
f 1279/18/5 1273/18/5 1278/18/5
f 1284/19/5 1281/19/5 1280/19/5
f 1285/19/5 1281/19/5 1284/19/5
f 1290/18/5 1283/18/5 1282/18/5
f 1291/18/5 1283/18/5 1290/18/5
f 1292/19/5 1286/19/5 1285/19/5
f 1293/19/5 1286/19/5 1292/19/5
f 1294/19/5 1290/19/5 1289/19/5
f 1295/19/5 1290/19/5 1294/19/5
f 1296/19/5 1288/19/5 1287/19/5
f 1297/19/5 1288/19/5 1296/19/5
f 1301/17/5 1299/17/5 1298/17/5
f 1302/17/5 1299/17/5 1301/17/5
f 1303/17/5 1299/17/5 1302/17/5
f 1304/16/5 1300/16/5 1299/16/5
f 1304/17/5 1299/17/5 1303/17/5
f 1305/16/5 1300/16/5 1304/16/5
f 1306/16/5 1300/16/5 1305/16/5
f 1309/18/5 1303/18/5 1302/18/5
f 1310/18/5 1303/18/5 1309/18/5
f 1311/18/5 1305/18/5 1304/18/5
f 1312/18/5 1305/18/5 1311/18/5
f 1315/19/5 1308/19/5 1307/19/5
f 1316/19/5 1308/19/5 1315/19/5
f 1317/18/5 1314/18/5 1313/18/5
f 1318/18/5 1314/18/5 1317/18/5
f 1323/19/5 1320/19/5 1319/19/5
f 1324/19/5 1320/19/5 1323/19/5
f 1325/18/5 1322/18/5 1321/18/5
f 1326/18/5 1322/18/5 1325/18/5
f 1333/15/5 1328/15/5 1327/15/5
f 1334/15/5 1328/15/5 1333/15/5
f 1335/19/5 1330/19/5 1329/19/5
f 1336/19/5 1330/19/5 1335/19/5
f 1337/18/5 1332/18/5 1331/18/5
f 1338/18/5 1332/18/5 1337/18/5
f 1345/19/5 1340/19/5 1339/19/5
f 1346/19/5 1340/19/5 1345/19/5
f 1347/18/5 1342/18/5 1341/18/5
f 1348/18/5 1342/18/5 1347/18/5
f 1349/15/5 1344/15/5 1343/15/5
f 1350/15/5 1344/15/5 1349/15/5
f 1355/19/5 1352/19/5 1351/19/5
f 1356/19/5 1352/19/5 1355/19/5
f 1357/18/5 1354/18/5 1353/18/5
f 1358/18/5 1354/18/5 1357/18/5
f 1363/19/5 1360/19/5 1359/19/5
f 1364/19/5 1360/19/5 1363/19/5
f 1365/18/5 1362/18/5 1361/18/5
f 1366/18/5 1362/18/5 1365/18/5
f 1367/13/6 1368/13/6 1374/13/6
f 1368/10/6 1369/10/6 1375/10/6
f 1374/13/6 1368/13/6 1375/13/6
f 1369/13/6 1370/13/6 1376/13/6
f 1375/10/6 1369/10/6 1376/10/6
f 1370/10/6 1371/10/6 1377/10/6
f 1376/13/6 1370/13/6 1377/13/6
f 1371/13/6 1372/13/6 1378/13/6
f 1377/10/6 1371/10/6 1378/10/6
f 1372/10/6 1373/10/6 1379/10/6
f 1378/13/6 1372/13/6 1379/13/6
f 1379/10/6 1373/10/6 1380/10/6
f 1374/10/6 1375/10/6 1383/10/6
f 1383/10/6 1375/10/6 1384/10/6
f 1379/13/6 1380/13/6 1385/13/6
f 1385/13/6 1380/13/6 1386/13/6
f 1381/1/6 1382/1/6 1388/1/6
f 1388/1/6 1382/1/6 1389/1/6
f 1383/13/6 1384/13/6 1390/13/6
f 1390/13/6 1384/13/6 1391/13/6
f 1385/10/6 1386/10/6 1392/10/6
f 1386/1/6 1387/1/6 1393/1/6
f 1392/10/6 1386/10/6 1393/10/6
f 1393/1/6 1387/1/6 1394/1/6
f 1390/10/6 1391/10/6 1395/10/6
f 1395/10/6 1391/10/6 1396/10/6
f 1392/13/6 1393/13/6 1400/13/6
f 1400/13/6 1393/13/6 1401/13/6
f 1395/13/6 1396/13/6 1402/13/6
f 1396/10/6 1397/10/6 1403/10/6
f 1402/13/6 1396/13/6 1403/13/6
f 1397/13/6 1398/13/6 1404/13/6
f 1403/10/6 1397/10/6 1404/10/6
f 1398/10/6 1399/10/6 1405/10/6
f 1404/13/6 1398/13/6 1405/13/6
f 1399/13/6 1400/13/6 1406/13/6
f 1405/10/6 1399/10/6 1406/10/6
f 1400/10/6 1401/10/6 1407/10/6
f 1406/13/6 1400/13/6 1407/13/6
f 1407/10/6 1401/10/6 1408/10/6
f 1408/5/6 1409/5/6 1412/5/6
f 1412/5/6 1409/5/6 1413/5/6
f 1410/5/6 1411/5/6 1414/5/6
f 1414/5/6 1411/5/6 1415/5/6
f 1416/12/6 1417/12/6 1420/12/6
f 1420/12/6 1417/12/6 1421/12/6
f 1418/1/6 1419/1/6 1422/1/6
f 1422/1/6 1419/1/6 1423/1/6
f 1424/5/6 1425/5/6 1430/5/6
f 1430/5/6 1425/5/6 1431/5/6
f 1426/5/6 1427/5/6 1432/5/6
f 1432/5/6 1427/5/6 1433/5/6
f 1428/5/6 1429/5/6 1434/5/6
f 1434/5/6 1429/5/6 1435/5/6
f 1436/17/6 1437/17/6 1440/17/6
f 1440/17/6 1437/17/6 1441/17/6
f 1438/1/6 1439/1/6 1442/1/6
f 1442/1/6 1439/1/6 1443/1/6
f 1444/5/6 1445/5/6 1448/5/6
f 1448/5/6 1445/5/6 1449/5/6
f 1446/5/6 1447/5/6 1450/5/6
f 1450/5/6 1447/5/6 1451/5/6
f 1452/5/6 1453/5/6 1457/5/6
f 1457/5/6 1453/5/6 1458/5/6
f 1454/5/6 1455/5/6 1459/5/6
f 1459/5/6 1455/5/6 1460/5/6
f 1456/5/6 1457/5/6 1464/5/6
f 1464/5/6 1457/5/6 1465/5/6
f 1460/5/6 1461/5/6 1466/5/6
f 1466/5/6 1461/5/6 1467/5/6
f 1462/15/6 1463/15/6 1470/15/6
f 1470/15/6 1463/15/6 1471/15/6
f 1468/5/6 1469/5/6 1472/5/6
f 1472/5/6 1469/5/6 1473/5/6
f 1474/5/6 1475/5/6 1480/5/6
f 1480/5/6 1475/5/6 1481/5/6
f 1476/5/6 1477/5/6 1482/5/6
f 1482/5/6 1477/5/6 1483/5/6
f 1478/5/6 1479/5/6 1484/5/6
f 1484/5/6 1479/5/6 1485/5/6
f 1486/19/6 1487/19/6 1490/19/6
f 1490/19/6 1487/19/6 1491/19/6
f 1488/18/6 1489/18/6 1492/18/6
f 1492/18/6 1489/18/6 1493/18/6
f 1494/19/6 1495/19/6 1498/19/6
f 1498/19/6 1495/19/6 1499/19/6
f 1496/18/6 1497/18/6 1500/18/6
f 1500/18/6 1497/18/6 1501/18/6
f 1502/20/6 1503/20/6 1508/20/6
f 1508/20/6 1503/20/6 1509/20/6
f 1504/19/6 1505/19/6 1510/19/6
f 1510/19/6 1505/19/6 1511/19/6
f 1506/18/6 1507/18/6 1512/18/6
f 1512/18/6 1507/18/6 1513/18/6
f 1514/19/6 1515/19/6 1524/19/6
f 1524/19/6 1515/19/6 1525/19/6
f 1516/18/6 1517/18/6 1526/18/6
f 1526/18/6 1517/18/6 1527/18/6
f 1518/15/6 1519/15/6 1528/15/6
f 1528/15/6 1519/15/6 1529/15/6
f 1520/17/6 1521/17/6 1530/17/6
f 1530/17/6 1521/17/6 1531/17/6
f 1522/6/6 1523/6/6 1532/6/6
f 1532/6/6 1523/6/6 1533/6/6
f 1534/19/6 1535/19/6 1538/19/6
f 1538/19/6 1535/19/6 1539/19/6
f 1536/18/6 1537/18/6 1540/18/6
f 1540/18/6 1537/18/6 1541/18/6
f 1542/19/6 1543/19/6 1544/19/6
f 1544/19/6 1543/19/6 1545/19/6
f 1546/17/6 1547/17/6 1551/17/6
f 1551/17/6 1547/17/6 1552/17/6
f 1547/16/6 1548/16/6 1553/16/6
f 1552/17/6 1547/17/6 1553/17/6
f 1548/14/6 1549/14/6 1554/14/6
f 1553/16/6 1548/16/6 1554/16/6
f 1554/14/6 1549/14/6 1555/14/6
f 1550/19/6 1551/19/6 1557/19/6
f 1557/19/6 1551/19/6 1558/19/6
f 1555/18/6 1556/18/6 1559/18/6
f 1559/18/6 1556/18/6 1560/18/6
f 1561/15/6 1562/15/6 1563/15/6
f 1563/15/6 1562/15/6 1564/15/6
f 1565/19/6 1566/19/6 1569/19/6
f 1569/19/6 1566/19/6 1570/19/6
f 1567/18/6 1568/18/6 1571/18/6
f 1571/18/6 1568/18/6 1572/18/6
f 1570/19/6 1571/19/6 1573/19/6
f 1573/19/6 1571/19/6 1574/19/6
f 1575/19/6 1576/19/6 1579/19/6
f 1576/18/6 1577/18/6 1580/18/6
f 1579/19/6 1576/19/6 1580/19/6
f 1580/18/6 1577/18/6 1581/18/6
f 1581/18/6 1577/18/6 1582/18/6
f 1582/18/6 1577/18/6 1583/18/6
f 1578/19/6 1579/19/6 1587/19/6
f 1579/19/6 1580/19/6 1587/19/6
f 1587/19/6 1580/19/6 1588/19/6
f 1582/18/6 1583/18/6 1589/18/6
f 1583/18/6 1584/18/6 1589/18/6
f 1589/18/6 1584/18/6 1590/18/6
f 1585/15/6 1586/15/6 1591/15/6
f 1591/15/6 1586/15/6 1592/15/6
f 1588/19/6 1580/19/6 1594/19/6
f 1582/18/6 1589/18/6 1595/18/6
f 1595/18/6 1589/18/6 1596/18/6
f 1593/19/6 1594/19/6 1598/19/6
f 1594/19/6 1580/19/6 1599/19/6
f 1598/19/6 1594/19/6 1599/19/6
f 1599/19/6 1580/19/6 1600/19/6
f 1595/19/6 1596/19/6 1602/19/6
f 1596/18/6 1597/18/6 1603/18/6
f 1602/19/6 1596/19/6 1603/19/6
f 1603/18/6 1597/18/6 1604/18/6
f 1601/19/6 1602/19/6 1605/19/6
f 1600/19/6 1601/19/6 1605/19/6
f 1602/19/6 1603/19/6 1605/19/6
f 1599/19/6 1600/19/6 1605/19/6
f 1605/19/6 1603/19/6 1606/19/6
f 1610/19/6 1611/19/6 1614/19/6
f 1614/19/6 1611/19/6 1615/19/6
f 1612/18/6 1613/18/6 1616/18/6
f 1616/18/6 1613/18/6 1617/18/6
f 1607/19/6 1608/19/6 1618/19/6
f 1608/18/6 1609/18/6 1619/18/6
f 1618/19/6 1608/19/6 1619/19/6
f 1619/18/6 1609/18/6 1620/18/6
f 1621/18/6 1622/18/6 1625/18/6
f 1625/18/6 1622/18/6 1626/18/6
f 1623/17/6 1624/17/6 1627/17/6
f 1627/17/6 1624/17/6 1628/17/6
