%YAML 1.1
%TAG !u! tag:unity3d.com,2011:
--- !u!65 &5870906016136013713
BoxCollider:
  m_ObjectHideFlags: 0
  m_CorrespondingSourceObject: {fileID: 0}
  m_PrefabInstance: {fileID: 0}
  m_PrefabAsset: {fileID: 0}
  m_GameObject: {fileID: 7853712125450145120}
  m_Material: {fileID: 0}
  m_IsTrigger: 0
  m_Enabled: 1
  serializedVersion: 2
  m_Size: {x: 1, y: 1.5, z: 1}
  m_Center: {x: 0, y: 0.75, z: 0}
--- !u!1001 &3353026410639006728
PrefabInstance:
  m_ObjectHideFlags: 0
  serializedVersion: 2
  m_Modification:
    m_TransformParent: {fileID: 0}
    m_Modifications:
    - target: {fileID: 5727527794018352931, guid: 5c2b012bbeffed248b66d1b1d018ecfb,
        type: 3}
      propertyPath: m_Name
      value: Knight
      objectReference: {fileID: 0}
    - target: {fileID: 5727527794018352933, guid: 5c2b012bbeffed248b66d1b1d018ecfb,
        type: 3}
      propertyPath: m_LocalPosition.x
      value: 3.2
      objectReference: {fileID: 0}
    - target: {fileID: 5727527794018352933, guid: 5c2b012bbeffed248b66d1b1d018ecfb,
        type: 3}
      propertyPath: m_LocalPosition.y
      value: 0
      objectReference: {fileID: 0}
    - target: {fileID: 5727527794018352933, guid: 5c2b012bbeffed248b66d1b1d018ecfb,
        type: 3}
      propertyPath: m_LocalPosition.z
      value: 0
      objectReference: {fileID: 0}
    - target: {fileID: 5727527794018352933, guid: 5c2b012bbeffed248b66d1b1d018ecfb,
        type: 3}
      propertyPath: m_LocalRotation.x
      value: 0
      objectReference: {fileID: 0}
    - target: {fileID: 5727527794018352933, guid: 5c2b012bbeffed248b66d1b1d018ecfb,
        type: 3}
      propertyPath: m_LocalRotation.y
      value: 0
      objectReference: {fileID: 0}
    - target: {fileID: 5727527794018352933, guid: 5c2b012bbeffed248b66d1b1d018ecfb,
        type: 3}
      propertyPath: m_LocalRotation.z
      value: 0
      objectReference: {fileID: 0}
    - target: {fileID: 5727527794018352933, guid: 5c2b012bbeffed248b66d1b1d018ecfb,
        type: 3}
      propertyPath: m_LocalRotation.w
      value: 1
      objectReference: {fileID: 0}
    - target: {fileID: 5727527794018352933, guid: 5c2b012bbeffed248b66d1b1d018ecfb,
        type: 3}
      propertyPath: m_RootOrder
      value: 0
      objectReference: {fileID: 0}
    - target: {fileID: 5727527794018352933, guid: 5c2b012bbeffed248b66d1b1d018ecfb,
        type: 3}
      propertyPath: m_LocalEulerAnglesHint.x
      value: 0
      objectReference: {fileID: 0}
    - target: {fileID: 5727527794018352933, guid: 5c2b012bbeffed248b66d1b1d018ecfb,
        type: 3}
      propertyPath: m_LocalEulerAnglesHint.y
      value: 0
      objectReference: {fileID: 0}
    - target: {fileID: 5727527794018352933, guid: 5c2b012bbeffed248b66d1b1d018ecfb,
        type: 3}
      propertyPath: m_LocalEulerAnglesHint.z
      value: 0
      objectReference: {fileID: 0}
    m_RemovedComponents: []
  m_SourcePrefab: {fileID: 100100000, guid: 5c2b012bbeffed248b66d1b1d018ecfb, type: 3}
--- !u!4 &7058288436218159917 stripped
Transform:
  m_CorrespondingSourceObject: {fileID: 5727527794018352933, guid: 5c2b012bbeffed248b66d1b1d018ecfb,
    type: 3}
  m_PrefabInstance: {fileID: 3353026410639006728}
  m_PrefabAsset: {fileID: 0}
--- !u!1001 &7853712125450243008
PrefabInstance:
  m_ObjectHideFlags: 0
  serializedVersion: 2
  m_Modification:
    m_TransformParent: {fileID: 7058288436218159917}
    m_Modifications:
    - target: {fileID: 100000, guid: 85c6d148ff9ce7a4dac2332ea52eeac6, type: 3}
      propertyPath: m_Name
      value: chr_knight
      objectReference: {fileID: 0}
    - target: {fileID: 400000, guid: 85c6d148ff9ce7a4dac2332ea52eeac6, type: 3}
      propertyPath: m_LocalPosition.x
      value: 0
      objectReference: {fileID: 0}
    - target: {fileID: 400000, guid: 85c6d148ff9ce7a4dac2332ea52eeac6, type: 3}
      propertyPath: m_LocalPosition.y
      value: 0
      objectReference: {fileID: 0}
    - target: {fileID: 400000, guid: 85c6d148ff9ce7a4dac2332ea52eeac6, type: 3}
      propertyPath: m_LocalPosition.z
      value: 0
      objectReference: {fileID: 0}
    - target: {fileID: 400000, guid: 85c6d148ff9ce7a4dac2332ea52eeac6, type: 3}
      propertyPath: m_LocalRotation.x
      value: -0
      objectReference: {fileID: 0}
    - target: {fileID: 400000, guid: 85c6d148ff9ce7a4dac2332ea52eeac6, type: 3}
      propertyPath: m_LocalRotation.y
      value: -0
      objectReference: {fileID: 0}
    - target: {fileID: 400000, guid: 85c6d148ff9ce7a4dac2332ea52eeac6, type: 3}
      propertyPath: m_LocalRotation.z
      value: -0
      objectReference: {fileID: 0}
    - target: {fileID: 400000, guid: 85c6d148ff9ce7a4dac2332ea52eeac6, type: 3}
      propertyPath: m_LocalRotation.w
      value: 1
      objectReference: {fileID: 0}
    - target: {fileID: 400000, guid: 85c6d148ff9ce7a4dac2332ea52eeac6, type: 3}
      propertyPath: m_RootOrder
      value: 0
      objectReference: {fileID: 0}
    - target: {fileID: 400000, guid: 85c6d148ff9ce7a4dac2332ea52eeac6, type: 3}
      propertyPath: m_LocalEulerAnglesHint.x
      value: 0
      objectReference: {fileID: 0}
    - target: {fileID: 400000, guid: 85c6d148ff9ce7a4dac2332ea52eeac6, type: 3}
      propertyPath: m_LocalEulerAnglesHint.y
      value: 0
      objectReference: {fileID: 0}
    - target: {fileID: 400000, guid: 85c6d148ff9ce7a4dac2332ea52eeac6, type: 3}
      propertyPath: m_LocalEulerAnglesHint.z
      value: 0
      objectReference: {fileID: 0}
    m_RemovedComponents: []
  m_SourcePrefab: {fileID: 100100000, guid: 85c6d148ff9ce7a4dac2332ea52eeac6, type: 3}
--- !u!1 &7853712125450145120 stripped
GameObject:
  m_CorrespondingSourceObject: {fileID: 100000, guid: 85c6d148ff9ce7a4dac2332ea52eeac6,
    type: 3}
  m_PrefabInstance: {fileID: 7853712125450243008}
  m_PrefabAsset: {fileID: 0}
