%YAML 1.1
%TAG !u! tag:unity3d.com,2011:
--- !u!29 &1
OcclusionCullingSettings:
  m_ObjectHideFlags: 0
  serializedVersion: 2
  m_OcclusionBakeSettings:
    smallestOccluder: 5
    smallestHole: 0.25
    backfaceThreshold: 100
  m_SceneGUID: 00000000000000000000000000000000
  m_OcclusionCullingData: {fileID: 0}
--- !u!104 &2
RenderSettings:
  m_ObjectHideFlags: 0
  serializedVersion: 9
  m_Fog: 0
  m_FogColor: {r: 0.5, g: 0.5, b: 0.5, a: 1}
  m_FogMode: 3
  m_FogDensity: 0.01
  m_LinearFogStart: 0
  m_LinearFogEnd: 300
  m_AmbientSkyColor: {r: 0.212, g: 0.227, b: 0.259, a: 1}
  m_AmbientEquatorColor: {r: 0.114, g: 0.125, b: 0.133, a: 1}
  m_AmbientGroundColor: {r: 0.047, g: 0.043, b: 0.035, a: 1}
  m_AmbientIntensity: 1
  m_AmbientMode: 0
  m_SubtractiveShadowColor: {r: 0.42, g: 0.478, b: 0.627, a: 1}
  m_SkyboxMaterial: {fileID: 10304, guid: 0000000000000000f000000000000000, type: 0}
  m_HaloStrength: 0.5
  m_FlareStrength: 1
  m_FlareFadeSpeed: 3
  m_HaloTexture: {fileID: 0}
  m_SpotCookie: {fileID: 10001, guid: 0000000000000000e000000000000000, type: 0}
  m_DefaultReflectionMode: 0
  m_DefaultReflectionResolution: 128
  m_ReflectionBounces: 1
  m_ReflectionIntensity: 1
  m_CustomReflection: {fileID: 0}
  m_Sun: {fileID: 0}
  m_IndirectSpecularColor: {r: 0.18028378, g: 0.22571412, b: 0.30692285, a: 1}
  m_UseRadianceAmbientProbe: 0
--- !u!157 &3
LightmapSettings:
  m_ObjectHideFlags: 0
  serializedVersion: 11
  m_GIWorkflowMode: 0
  m_GISettings:
    serializedVersion: 2
    m_BounceScale: 1
    m_IndirectOutputScale: 1
    m_AlbedoBoost: 1
    m_EnvironmentLightingMode: 0
    m_EnableBakedLightmaps: 1
    m_EnableRealtimeLightmaps: 1
  m_LightmapEditorSettings:
    serializedVersion: 10
    m_Resolution: 2
    m_BakeResolution: 40
    m_AtlasSize: 1024
    m_AO: 0
    m_AOMaxDistance: 1
    m_CompAOExponent: 1
    m_CompAOExponentDirect: 0
    m_Padding: 2
    m_LightmapParameters: {fileID: 0}
    m_LightmapsBakeMode: 1
    m_TextureCompression: 1
    m_FinalGather: 0
    m_FinalGatherFiltering: 1
    m_FinalGatherRayCount: 256
    m_ReflectionCompression: 2
    m_MixedBakeMode: 2
    m_BakeBackend: 1
    m_PVRSampling: 1
    m_PVRDirectSampleCount: 32
    m_PVRSampleCount: 500
    m_PVRBounces: 2
    m_PVRFilterTypeDirect: 0
    m_PVRFilterTypeIndirect: 0
    m_PVRFilterTypeAO: 0
    m_PVRFilteringMode: 1
    m_PVRCulling: 1
    m_PVRFilteringGaussRadiusDirect: 1
    m_PVRFilteringGaussRadiusIndirect: 5
    m_PVRFilteringGaussRadiusAO: 2
    m_PVRFilteringAtrousPositionSigmaDirect: 0.5
    m_PVRFilteringAtrousPositionSigmaIndirect: 2
    m_PVRFilteringAtrousPositionSigmaAO: 1
    m_ShowResolutionOverlay: 1
  m_LightingDataAsset: {fileID: 0}
  m_UseShadowmask: 1
--- !u!196 &4
NavMeshSettings:
  serializedVersion: 2
  m_ObjectHideFlags: 0
  m_BuildSettings:
    serializedVersion: 2
    agentTypeID: 0
    agentRadius: 0.5
    agentHeight: 2
    agentSlope: 45
    agentClimb: 0.4
    ledgeDropHeight: 0
    maxJumpAcrossDistance: 0
    minRegionArea: 2
    manualCellSize: 0
    cellSize: 0.16666667
    manualTileSize: 0
    tileSize: 256
    accuratePlacement: 0
    debug:
      m_Flags: 0
  m_NavMeshData: {fileID: 0}
--- !u!1 &259020440
GameObject:
  m_ObjectHideFlags: 0
  m_CorrespondingSourceObject: {fileID: 0}
  m_PrefabInstance: {fileID: 0}
  m_PrefabAsset: {fileID: 0}
  serializedVersion: 6
  m_Component:
  - component: {fileID: 259020443}
  - component: {fileID: 259020442}
  - component: {fileID: 259020441}
  m_Layer: 0
  m_Name: Main Camera
  m_TagString: MainCamera
  m_Icon: {fileID: 0}
  m_NavMeshLayer: 0
  m_StaticEditorFlags: 0
  m_IsActive: 1
--- !u!81 &259020441
AudioListener:
  m_ObjectHideFlags: 0
  m_CorrespondingSourceObject: {fileID: 0}
  m_PrefabInstance: {fileID: 0}
  m_PrefabAsset: {fileID: 0}
  m_GameObject: {fileID: 259020440}
  m_Enabled: 1
--- !u!20 &259020442
Camera:
  m_ObjectHideFlags: 0
  m_CorrespondingSourceObject: {fileID: 0}
  m_PrefabInstance: {fileID: 0}
  m_PrefabAsset: {fileID: 0}
  m_GameObject: {fileID: 259020440}
  m_Enabled: 1
  serializedVersion: 2
  m_ClearFlags: 1
  m_BackGroundColor: {r: 0.19215687, g: 0.3019608, b: 0.4745098, a: 0}
  m_projectionMatrixMode: 1
  m_SensorSize: {x: 36, y: 24}
  m_LensShift: {x: 0, y: 0}
  m_GateFitMode: 2
  m_FocalLength: 50
  m_NormalizedViewPortRect:
    serializedVersion: 2
    x: 0
    y: 0
    width: 1
    height: 1
  near clip plane: 0.3
  far clip plane: 1000
  field of view: 60
  orthographic: 0
  orthographic size: 5
  m_Depth: -1
  m_CullingMask:
    serializedVersion: 2
    m_Bits: 4294967295
  m_RenderingPath: -1
  m_TargetTexture: {fileID: 0}
  m_TargetDisplay: 0
  m_TargetEye: 3
  m_HDR: 1
  m_AllowMSAA: 1
  m_AllowDynamicResolution: 0
  m_ForceIntoRT: 0
  m_OcclusionCulling: 1
  m_StereoConvergence: 10
  m_StereoSeparation: 0.022
--- !u!4 &259020443
Transform:
  m_ObjectHideFlags: 0
  m_CorrespondingSourceObject: {fileID: 0}
  m_PrefabInstance: {fileID: 0}
  m_PrefabAsset: {fileID: 0}
  m_GameObject: {fileID: 259020440}
  m_LocalRotation: {x: 0, y: 0, z: 0, w: 1}
  m_LocalPosition: {x: 0, y: 1, z: -10}
  m_LocalScale: {x: 1, y: 1, z: 1}
  m_Children: []
  m_Father: {fileID: 0}
  m_RootOrder: 0
  m_LocalEulerAnglesHint: {x: 0, y: 0, z: 0}
--- !u!1 &623075374
GameObject:
  m_ObjectHideFlags: 0
  m_CorrespondingSourceObject: {fileID: 0}
  m_PrefabInstance: {fileID: 0}
  m_PrefabAsset: {fileID: 0}
  serializedVersion: 6
  m_Component:
  - component: {fileID: 623075376}
  - component: {fileID: 623075375}
  m_Layer: 0
  m_Name: Directional Light
  m_TagString: Untagged
  m_Icon: {fileID: 0}
  m_NavMeshLayer: 0
  m_StaticEditorFlags: 0
  m_IsActive: 1
--- !u!108 &623075375
Light:
  m_ObjectHideFlags: 0
  m_CorrespondingSourceObject: {fileID: 0}
  m_PrefabInstance: {fileID: 0}
  m_PrefabAsset: {fileID: 0}
  m_GameObject: {fileID: 623075374}
  m_Enabled: 1
  serializedVersion: 8
  m_Type: 1
  m_Color: {r: 1, g: 0.95686275, b: 0.8392157, a: 1}
  m_Intensity: 1
  m_Range: 10
  m_SpotAngle: 30
  m_CookieSize: 10
  m_Shadows:
    m_Type: 2
    m_Resolution: -1
    m_CustomResolution: -1
    m_Strength: 1
    m_Bias: 0.05
    m_NormalBias: 0.4
    m_NearPlane: 0.2
  m_Cookie: {fileID: 0}
  m_DrawHalo: 0
  m_Flare: {fileID: 0}
  m_RenderMode: 0
  m_CullingMask:
    serializedVersion: 2
    m_Bits: 4294967295
  m_Lightmapping: 4
  m_LightShadowCasterMode: 0
  m_AreaSize: {x: 1, y: 1}
  m_BounceIntensity: 1
  m_ColorTemperature: 6570
  m_UseColorTemperature: 0
  m_ShadowRadius: 0
  m_ShadowAngle: 0
--- !u!4 &623075376
Transform:
  m_ObjectHideFlags: 0
  m_CorrespondingSourceObject: {fileID: 0}
  m_PrefabInstance: {fileID: 0}
  m_PrefabAsset: {fileID: 0}
  m_GameObject: {fileID: 623075374}
  m_LocalRotation: {x: 0.40821788, y: -0.23456968, z: 0.10938163, w: 0.8754261}
  m_LocalPosition: {x: 0, y: 3, z: 0}
  m_LocalScale: {x: 1, y: 1, z: 1}
  m_Children: []
  m_Father: {fileID: 0}
  m_RootOrder: 1
  m_LocalEulerAnglesHint: {x: 50, y: -30, z: 0}
--- !u!1001 &212578028244109141
PrefabInstance:
  m_ObjectHideFlags: 0
  serializedVersion: 2
  m_Modification:
    m_TransformParent: {fileID: 0}
    m_Modifications:
    - target: {fileID: 6593913660038250364, guid: ec152e305a77c4c439dc1462ead09875,
        type: 3}
      propertyPath: m_Name
      value: SmallBullet
      objectReference: {fileID: 0}
    - target: {fileID: 6333947973313001610, guid: ec152e305a77c4c439dc1462ead09875,
        type: 3}
      propertyPath: m_LocalPosition.x
      value: -1.261
      objectReference: {fileID: 0}
    - target: {fileID: 6333947973313001610, guid: ec152e305a77c4c439dc1462ead09875,
        type: 3}
      propertyPath: m_LocalPosition.y
      value: 0
      objectReference: {fileID: 0}
    - target: {fileID: 6333947973313001610, guid: ec152e305a77c4c439dc1462ead09875,
        type: 3}
      propertyPath: m_LocalPosition.z
      value: 0
      objectReference: {fileID: 0}
    - target: {fileID: 6333947973313001610, guid: ec152e305a77c4c439dc1462ead09875,
        type: 3}
      propertyPath: m_LocalRotation.x
      value: 0
      objectReference: {fileID: 0}
    - target: {fileID: 6333947973313001610, guid: ec152e305a77c4c439dc1462ead09875,
        type: 3}
      propertyPath: m_LocalRotation.y
      value: 0
      objectReference: {fileID: 0}
    - target: {fileID: 6333947973313001610, guid: ec152e305a77c4c439dc1462ead09875,
        type: 3}
      propertyPath: m_LocalRotation.z
      value: 0
      objectReference: {fileID: 0}
    - target: {fileID: 6333947973313001610, guid: ec152e305a77c4c439dc1462ead09875,
        type: 3}
      propertyPath: m_LocalRotation.w
      value: 1
      objectReference: {fileID: 0}
    - target: {fileID: 6333947973313001610, guid: ec152e305a77c4c439dc1462ead09875,
        type: 3}
      propertyPath: m_RootOrder
      value: 6
      objectReference: {fileID: 0}
    - target: {fileID: 6333947973313001610, guid: ec152e305a77c4c439dc1462ead09875,
        type: 3}
      propertyPath: m_LocalEulerAnglesHint.x
      value: 0
      objectReference: {fileID: 0}
    - target: {fileID: 6333947973313001610, guid: ec152e305a77c4c439dc1462ead09875,
        type: 3}
      propertyPath: m_LocalEulerAnglesHint.y
      value: 0
      objectReference: {fileID: 0}
    - target: {fileID: 6333947973313001610, guid: ec152e305a77c4c439dc1462ead09875,
        type: 3}
      propertyPath: m_LocalEulerAnglesHint.z
      value: 0
      objectReference: {fileID: 0}
    - target: {fileID: 8686564664148081892, guid: ec152e305a77c4c439dc1462ead09875,
        type: 3}
      propertyPath: m_Materials.Array.data[0]
      value: 
      objectReference: {fileID: 2100000, guid: b0aed6ab10e7dce48917df54499b571b, type: 2}
    m_RemovedComponents: []
  m_SourcePrefab: {fileID: 100100000, guid: ec152e305a77c4c439dc1462ead09875, type: 3}
--- !u!1001 &1390776503878125214
PrefabInstance:
  m_ObjectHideFlags: 0
  serializedVersion: 2
  m_Modification:
    m_TransformParent: {fileID: 0}
    m_Modifications:
    - target: {fileID: 856153251907290219, guid: bfae9ead20a87a34a84f25a9260f2c0c,
        type: 3}
      propertyPath: m_Name
      value: SimpleBullet
      objectReference: {fileID: 0}
    - target: {fileID: 541935324301247389, guid: bfae9ead20a87a34a84f25a9260f2c0c,
        type: 3}
      propertyPath: m_LocalPosition.x
      value: 0
      objectReference: {fileID: 0}
    - target: {fileID: 541935324301247389, guid: bfae9ead20a87a34a84f25a9260f2c0c,
        type: 3}
      propertyPath: m_LocalPosition.y
      value: 0
      objectReference: {fileID: 0}
    - target: {fileID: 541935324301247389, guid: bfae9ead20a87a34a84f25a9260f2c0c,
        type: 3}
      propertyPath: m_LocalPosition.z
      value: 0
      objectReference: {fileID: 0}
    - target: {fileID: 541935324301247389, guid: bfae9ead20a87a34a84f25a9260f2c0c,
        type: 3}
      propertyPath: m_LocalRotation.x
      value: 0
      objectReference: {fileID: 0}
    - target: {fileID: 541935324301247389, guid: bfae9ead20a87a34a84f25a9260f2c0c,
        type: 3}
      propertyPath: m_LocalRotation.y
      value: 0
      objectReference: {fileID: 0}
    - target: {fileID: 541935324301247389, guid: bfae9ead20a87a34a84f25a9260f2c0c,
        type: 3}
      propertyPath: m_LocalRotation.z
      value: 0
      objectReference: {fileID: 0}
    - target: {fileID: 541935324301247389, guid: bfae9ead20a87a34a84f25a9260f2c0c,
        type: 3}
      propertyPath: m_LocalRotation.w
      value: 1
      objectReference: {fileID: 0}
    - target: {fileID: 541935324301247389, guid: bfae9ead20a87a34a84f25a9260f2c0c,
        type: 3}
      propertyPath: m_RootOrder
      value: 2
      objectReference: {fileID: 0}
    - target: {fileID: 541935324301247389, guid: bfae9ead20a87a34a84f25a9260f2c0c,
        type: 3}
      propertyPath: m_LocalEulerAnglesHint.x
      value: 0
      objectReference: {fileID: 0}
    - target: {fileID: 541935324301247389, guid: bfae9ead20a87a34a84f25a9260f2c0c,
        type: 3}
      propertyPath: m_LocalEulerAnglesHint.y
      value: 0
      objectReference: {fileID: 0}
    - target: {fileID: 541935324301247389, guid: bfae9ead20a87a34a84f25a9260f2c0c,
        type: 3}
      propertyPath: m_LocalEulerAnglesHint.z
      value: 0
      objectReference: {fileID: 0}
    m_RemovedComponents: []
  m_SourcePrefab: {fileID: 100100000, guid: bfae9ead20a87a34a84f25a9260f2c0c, type: 3}
--- !u!1001 &2392073845923115535
PrefabInstance:
  m_ObjectHideFlags: 0
  serializedVersion: 2
  m_Modification:
    m_TransformParent: {fileID: 0}
    m_Modifications:
    - target: {fileID: 5158255990831704900, guid: 99ceff46947376a4c890885afd1516d7,
        type: 3}
      propertyPath: m_Name
      value: HolyHandGranade
      objectReference: {fileID: 0}
    - target: {fileID: 5472212096693398706, guid: 99ceff46947376a4c890885afd1516d7,
        type: 3}
      propertyPath: m_LocalPosition.x
      value: 6.19
      objectReference: {fileID: 0}
    - target: {fileID: 5472212096693398706, guid: 99ceff46947376a4c890885afd1516d7,
        type: 3}
      propertyPath: m_LocalPosition.y
      value: 0
      objectReference: {fileID: 0}
    - target: {fileID: 5472212096693398706, guid: 99ceff46947376a4c890885afd1516d7,
        type: 3}
      propertyPath: m_LocalPosition.z
      value: 0
      objectReference: {fileID: 0}
    - target: {fileID: 5472212096693398706, guid: 99ceff46947376a4c890885afd1516d7,
        type: 3}
      propertyPath: m_LocalRotation.x
      value: 0
      objectReference: {fileID: 0}
    - target: {fileID: 5472212096693398706, guid: 99ceff46947376a4c890885afd1516d7,
        type: 3}
      propertyPath: m_LocalRotation.y
      value: 0
      objectReference: {fileID: 0}
    - target: {fileID: 5472212096693398706, guid: 99ceff46947376a4c890885afd1516d7,
        type: 3}
      propertyPath: m_LocalRotation.z
      value: 0
      objectReference: {fileID: 0}
    - target: {fileID: 5472212096693398706, guid: 99ceff46947376a4c890885afd1516d7,
        type: 3}
      propertyPath: m_LocalRotation.w
      value: 1
      objectReference: {fileID: 0}
    - target: {fileID: 5472212096693398706, guid: 99ceff46947376a4c890885afd1516d7,
        type: 3}
      propertyPath: m_RootOrder
      value: 9
      objectReference: {fileID: 0}
    - target: {fileID: 5472212096693398706, guid: 99ceff46947376a4c890885afd1516d7,
        type: 3}
      propertyPath: m_LocalEulerAnglesHint.x
      value: 0
      objectReference: {fileID: 0}
    - target: {fileID: 5472212096693398706, guid: 99ceff46947376a4c890885afd1516d7,
        type: 3}
      propertyPath: m_LocalEulerAnglesHint.y
      value: 0
      objectReference: {fileID: 0}
    - target: {fileID: 5472212096693398706, guid: 99ceff46947376a4c890885afd1516d7,
        type: 3}
      propertyPath: m_LocalEulerAnglesHint.z
      value: 0
      objectReference: {fileID: 0}
    m_RemovedComponents: []
  m_SourcePrefab: {fileID: 100100000, guid: 99ceff46947376a4c890885afd1516d7, type: 3}
--- !u!1001 &3959562021048740105
PrefabInstance:
  m_ObjectHideFlags: 0
  serializedVersion: 2
  m_Modification:
    m_TransformParent: {fileID: 0}
    m_Modifications:
    - target: {fileID: 20074141991852538, guid: 5d09ff1ebce64bd42a05b78ec7d1e8fc,
        type: 3}
      propertyPath: m_Name
      value: VeryBigBullet
      objectReference: {fileID: 0}
    - target: {fileID: 874732717761420812, guid: 5d09ff1ebce64bd42a05b78ec7d1e8fc,
        type: 3}
      propertyPath: m_LocalPosition.x
      value: -4.19
      objectReference: {fileID: 0}
    - target: {fileID: 874732717761420812, guid: 5d09ff1ebce64bd42a05b78ec7d1e8fc,
        type: 3}
      propertyPath: m_LocalPosition.y
      value: 0
      objectReference: {fileID: 0}
    - target: {fileID: 874732717761420812, guid: 5d09ff1ebce64bd42a05b78ec7d1e8fc,
        type: 3}
      propertyPath: m_LocalPosition.z
      value: 0
      objectReference: {fileID: 0}
    - target: {fileID: 874732717761420812, guid: 5d09ff1ebce64bd42a05b78ec7d1e8fc,
        type: 3}
      propertyPath: m_LocalRotation.x
      value: 0
      objectReference: {fileID: 0}
    - target: {fileID: 874732717761420812, guid: 5d09ff1ebce64bd42a05b78ec7d1e8fc,
        type: 3}
      propertyPath: m_LocalRotation.y
      value: 0
      objectReference: {fileID: 0}
    - target: {fileID: 874732717761420812, guid: 5d09ff1ebce64bd42a05b78ec7d1e8fc,
        type: 3}
      propertyPath: m_LocalRotation.z
      value: 0
      objectReference: {fileID: 0}
    - target: {fileID: 874732717761420812, guid: 5d09ff1ebce64bd42a05b78ec7d1e8fc,
        type: 3}
      propertyPath: m_LocalRotation.w
      value: 1
      objectReference: {fileID: 0}
    - target: {fileID: 874732717761420812, guid: 5d09ff1ebce64bd42a05b78ec7d1e8fc,
        type: 3}
      propertyPath: m_RootOrder
      value: 8
      objectReference: {fileID: 0}
    - target: {fileID: 874732717761420812, guid: 5d09ff1ebce64bd42a05b78ec7d1e8fc,
        type: 3}
      propertyPath: m_LocalEulerAnglesHint.x
      value: 0
      objectReference: {fileID: 0}
    - target: {fileID: 874732717761420812, guid: 5d09ff1ebce64bd42a05b78ec7d1e8fc,
        type: 3}
      propertyPath: m_LocalEulerAnglesHint.y
      value: 0
      objectReference: {fileID: 0}
    - target: {fileID: 874732717761420812, guid: 5d09ff1ebce64bd42a05b78ec7d1e8fc,
        type: 3}
      propertyPath: m_LocalEulerAnglesHint.z
      value: 0
      objectReference: {fileID: 0}
    m_RemovedComponents: []
  m_SourcePrefab: {fileID: 100100000, guid: 5d09ff1ebce64bd42a05b78ec7d1e8fc, type: 3}
--- !u!1001 &5067495055017063270
PrefabInstance:
  m_ObjectHideFlags: 0
  serializedVersion: 2
  m_Modification:
    m_TransformParent: {fileID: 0}
    m_Modifications:
    - target: {fileID: 5953966391570075117, guid: b703327369b9cb246bbc1c1e544b6cbc,
        type: 3}
      propertyPath: m_Name
      value: ShotgunBullet
      objectReference: {fileID: 0}
    - target: {fileID: 6828654909712927259, guid: b703327369b9cb246bbc1c1e544b6cbc,
        type: 3}
      propertyPath: m_LocalPosition.x
      value: 4.75
      objectReference: {fileID: 0}
    - target: {fileID: 6828654909712927259, guid: b703327369b9cb246bbc1c1e544b6cbc,
        type: 3}
      propertyPath: m_LocalPosition.y
      value: 0
      objectReference: {fileID: 0}
    - target: {fileID: 6828654909712927259, guid: b703327369b9cb246bbc1c1e544b6cbc,
        type: 3}
      propertyPath: m_LocalPosition.z
      value: 0
      objectReference: {fileID: 0}
    - target: {fileID: 6828654909712927259, guid: b703327369b9cb246bbc1c1e544b6cbc,
        type: 3}
      propertyPath: m_LocalRotation.x
      value: 0
      objectReference: {fileID: 0}
    - target: {fileID: 6828654909712927259, guid: b703327369b9cb246bbc1c1e544b6cbc,
        type: 3}
      propertyPath: m_LocalRotation.y
      value: 0
      objectReference: {fileID: 0}
    - target: {fileID: 6828654909712927259, guid: b703327369b9cb246bbc1c1e544b6cbc,
        type: 3}
      propertyPath: m_LocalRotation.z
      value: 0
      objectReference: {fileID: 0}
    - target: {fileID: 6828654909712927259, guid: b703327369b9cb246bbc1c1e544b6cbc,
        type: 3}
      propertyPath: m_LocalRotation.w
      value: 1
      objectReference: {fileID: 0}
    - target: {fileID: 6828654909712927259, guid: b703327369b9cb246bbc1c1e544b6cbc,
        type: 3}
      propertyPath: m_RootOrder
      value: 5
      objectReference: {fileID: 0}
    - target: {fileID: 6828654909712927259, guid: b703327369b9cb246bbc1c1e544b6cbc,
        type: 3}
      propertyPath: m_LocalEulerAnglesHint.x
      value: 0
      objectReference: {fileID: 0}
    - target: {fileID: 6828654909712927259, guid: b703327369b9cb246bbc1c1e544b6cbc,
        type: 3}
      propertyPath: m_LocalEulerAnglesHint.y
      value: 0
      objectReference: {fileID: 0}
    - target: {fileID: 6828654909712927259, guid: b703327369b9cb246bbc1c1e544b6cbc,
        type: 3}
      propertyPath: m_LocalEulerAnglesHint.z
      value: 0
      objectReference: {fileID: 0}
    m_RemovedComponents: []
  m_SourcePrefab: {fileID: 100100000, guid: b703327369b9cb246bbc1c1e544b6cbc, type: 3}
--- !u!1001 &5099698756632776642
PrefabInstance:
  m_ObjectHideFlags: 0
  serializedVersion: 2
  m_Modification:
    m_TransformParent: {fileID: 0}
    m_Modifications:
    - target: {fileID: 6254373717090681598, guid: 6b568beb74a88014b8d2228b38474a7d,
        type: 3}
      propertyPath: m_Name
      value: ChainBullet
      objectReference: {fileID: 0}
    - target: {fileID: 7136692126122346882, guid: 6b568beb74a88014b8d2228b38474a7d,
        type: 3}
      propertyPath: m_LocalPosition.x
      value: -2.382
      objectReference: {fileID: 0}
    - target: {fileID: 7136692126122346882, guid: 6b568beb74a88014b8d2228b38474a7d,
        type: 3}
      propertyPath: m_LocalPosition.y
      value: -0.077
      objectReference: {fileID: 0}
    - target: {fileID: 7136692126122346882, guid: 6b568beb74a88014b8d2228b38474a7d,
        type: 3}
      propertyPath: m_LocalPosition.z
      value: 0.005142927
      objectReference: {fileID: 0}
    - target: {fileID: 7136692126122346882, guid: 6b568beb74a88014b8d2228b38474a7d,
        type: 3}
      propertyPath: m_LocalRotation.x
      value: 0
      objectReference: {fileID: 0}
    - target: {fileID: 7136692126122346882, guid: 6b568beb74a88014b8d2228b38474a7d,
        type: 3}
      propertyPath: m_LocalRotation.y
      value: 0
      objectReference: {fileID: 0}
    - target: {fileID: 7136692126122346882, guid: 6b568beb74a88014b8d2228b38474a7d,
        type: 3}
      propertyPath: m_LocalRotation.z
      value: 0
      objectReference: {fileID: 0}
    - target: {fileID: 7136692126122346882, guid: 6b568beb74a88014b8d2228b38474a7d,
        type: 3}
      propertyPath: m_LocalRotation.w
      value: 1
      objectReference: {fileID: 0}
    - target: {fileID: 7136692126122346882, guid: 6b568beb74a88014b8d2228b38474a7d,
        type: 3}
      propertyPath: m_RootOrder
      value: 7
      objectReference: {fileID: 0}
    - target: {fileID: 7136692126122346882, guid: 6b568beb74a88014b8d2228b38474a7d,
        type: 3}
      propertyPath: m_LocalEulerAnglesHint.x
      value: 0
      objectReference: {fileID: 0}
    - target: {fileID: 7136692126122346882, guid: 6b568beb74a88014b8d2228b38474a7d,
        type: 3}
      propertyPath: m_LocalEulerAnglesHint.y
      value: 0
      objectReference: {fileID: 0}
    - target: {fileID: 7136692126122346882, guid: 6b568beb74a88014b8d2228b38474a7d,
        type: 3}
      propertyPath: m_LocalEulerAnglesHint.z
      value: 0
      objectReference: {fileID: 0}
    - target: {fileID: 5099698755226827205, guid: 6b568beb74a88014b8d2228b38474a7d,
        type: 3}
      propertyPath: m_ConnectedAnchor.x
      value: 0.0070112944
      objectReference: {fileID: 0}
    - target: {fileID: 5099698755226827205, guid: 6b568beb74a88014b8d2228b38474a7d,
        type: 3}
      propertyPath: m_ConnectedAnchor.y
      value: -0.5778474
      objectReference: {fileID: 0}
    - target: {fileID: 5099698755226827205, guid: 6b568beb74a88014b8d2228b38474a7d,
        type: 3}
      propertyPath: m_ConnectedAnchor.z
      value: -0.01648903
      objectReference: {fileID: 0}
    - target: {fileID: 5099698756487659668, guid: 6b568beb74a88014b8d2228b38474a7d,
        type: 3}
      propertyPath: m_ConnectedAnchor.x
      value: 0.00000027318794
      objectReference: {fileID: 0}
    - target: {fileID: 5099698756487659668, guid: 6b568beb74a88014b8d2228b38474a7d,
        type: 3}
      propertyPath: m_ConnectedAnchor.y
      value: -0.47199994
      objectReference: {fileID: 0}
    - target: {fileID: 5099698756487659668, guid: 6b568beb74a88014b8d2228b38474a7d,
        type: 3}
      propertyPath: m_ConnectedAnchor.z
      value: -0.00000005238685
      objectReference: {fileID: 0}
    - target: {fileID: 5099698756232244769, guid: 6b568beb74a88014b8d2228b38474a7d,
        type: 3}
      propertyPath: m_ConnectedAnchor.x
      value: 0.0051834676
      objectReference: {fileID: 0}
    - target: {fileID: 5099698756232244769, guid: 6b568beb74a88014b8d2228b38474a7d,
        type: 3}
      propertyPath: m_ConnectedAnchor.y
      value: -0.5142781
      objectReference: {fileID: 0}
    - target: {fileID: 5099698756232244769, guid: 6b568beb74a88014b8d2228b38474a7d,
        type: 3}
      propertyPath: m_ConnectedAnchor.z
      value: -0.03341476
      objectReference: {fileID: 0}
    - target: {fileID: 5099698756468034559, guid: 6b568beb74a88014b8d2228b38474a7d,
        type: 3}
      propertyPath: m_ConnectedAnchor.x
      value: -0.0064168866
      objectReference: {fileID: 0}
    - target: {fileID: 5099698756468034559, guid: 6b568beb74a88014b8d2228b38474a7d,
        type: 3}
      propertyPath: m_ConnectedAnchor.y
      value: -0.5199338
      objectReference: {fileID: 0}
    - target: {fileID: 5099698756468034559, guid: 6b568beb74a88014b8d2228b38474a7d,
        type: 3}
      propertyPath: m_ConnectedAnchor.z
      value: 0.034163963
      objectReference: {fileID: 0}
    - target: {fileID: 5099698755431960293, guid: 6b568beb74a88014b8d2228b38474a7d,
        type: 3}
      propertyPath: m_ConnectedAnchor.x
      value: -0.023529775
      objectReference: {fileID: 0}
    - target: {fileID: 5099698755431960293, guid: 6b568beb74a88014b8d2228b38474a7d,
        type: 3}
      propertyPath: m_ConnectedAnchor.y
      value: -0.552483
      objectReference: {fileID: 0}
    - target: {fileID: 5099698755431960293, guid: 6b568beb74a88014b8d2228b38474a7d,
        type: 3}
      propertyPath: m_ConnectedAnchor.z
      value: -0.07139688
      objectReference: {fileID: 0}
    - target: {fileID: 5099698756499809035, guid: 6b568beb74a88014b8d2228b38474a7d,
        type: 3}
      propertyPath: m_ConnectedAnchor.x
      value: 0.075066924
      objectReference: {fileID: 0}
    - target: {fileID: 5099698756499809035, guid: 6b568beb74a88014b8d2228b38474a7d,
        type: 3}
      propertyPath: m_ConnectedAnchor.y
      value: -0.46948504
      objectReference: {fileID: 0}
    - target: {fileID: 5099698756499809035, guid: 6b568beb74a88014b8d2228b38474a7d,
        type: 3}
      propertyPath: m_ConnectedAnchor.z
      value: -0.06709138
      objectReference: {fileID: 0}
    m_RemovedComponents: []
  m_SourcePrefab: {fileID: 100100000, guid: 6b568beb74a88014b8d2228b38474a7d, type: 3}
--- !u!1001 &7152205621672298746
PrefabInstance:
  m_ObjectHideFlags: 0
  serializedVersion: 2
  m_Modification:
    m_TransformParent: {fileID: 0}
    m_Modifications:
    - target: {fileID: 2987661068927722644, guid: 91aa21c1467ec364594092fd4707812d,
        type: 3}
      propertyPath: m_Name
      value: TripleBullet
      objectReference: {fileID: 0}
    - target: {fileID: 9215357887386147079, guid: 91aa21c1467ec364594092fd4707812d,
        type: 3}
      propertyPath: m_LocalPosition.x
      value: 3.5
      objectReference: {fileID: 0}
    - target: {fileID: 9215357887386147079, guid: 91aa21c1467ec364594092fd4707812d,
        type: 3}
      propertyPath: m_LocalPosition.y
      value: 0
      objectReference: {fileID: 0}
    - target: {fileID: 9215357887386147079, guid: 91aa21c1467ec364594092fd4707812d,
        type: 3}
      propertyPath: m_LocalPosition.z
      value: 0
      objectReference: {fileID: 0}
    - target: {fileID: 9215357887386147079, guid: 91aa21c1467ec364594092fd4707812d,
        type: 3}
      propertyPath: m_LocalRotation.x
      value: 0
      objectReference: {fileID: 0}
    - target: {fileID: 9215357887386147079, guid: 91aa21c1467ec364594092fd4707812d,
        type: 3}
      propertyPath: m_LocalRotation.y
      value: 0
      objectReference: {fileID: 0}
    - target: {fileID: 9215357887386147079, guid: 91aa21c1467ec364594092fd4707812d,
        type: 3}
      propertyPath: m_LocalRotation.z
      value: 0
      objectReference: {fileID: 0}
    - target: {fileID: 9215357887386147079, guid: 91aa21c1467ec364594092fd4707812d,
        type: 3}
      propertyPath: m_LocalRotation.w
      value: 1
      objectReference: {fileID: 0}
    - target: {fileID: 9215357887386147079, guid: 91aa21c1467ec364594092fd4707812d,
        type: 3}
      propertyPath: m_RootOrder
      value: 4
      objectReference: {fileID: 0}
    - target: {fileID: 9215357887386147079, guid: 91aa21c1467ec364594092fd4707812d,
        type: 3}
      propertyPath: m_LocalEulerAnglesHint.x
      value: 0
      objectReference: {fileID: 0}
    - target: {fileID: 9215357887386147079, guid: 91aa21c1467ec364594092fd4707812d,
        type: 3}
      propertyPath: m_LocalEulerAnglesHint.y
      value: 0
      objectReference: {fileID: 0}
    - target: {fileID: 9215357887386147079, guid: 91aa21c1467ec364594092fd4707812d,
        type: 3}
      propertyPath: m_LocalEulerAnglesHint.z
      value: 0
      objectReference: {fileID: 0}
    - target: {fileID: 4844394072415157727, guid: 91aa21c1467ec364594092fd4707812d,
        type: 3}
      propertyPath: m_Materials.Array.data[0]
      value: 
      objectReference: {fileID: 2100000, guid: b0aed6ab10e7dce48917df54499b571b, type: 2}
    m_RemovedComponents: []
  m_SourcePrefab: {fileID: 100100000, guid: 91aa21c1467ec364594092fd4707812d, type: 3}
--- !u!1001 &9189973698614650391
PrefabInstance:
  m_ObjectHideFlags: 0
  serializedVersion: 2
  m_Modification:
    m_TransformParent: {fileID: 0}
    m_Modifications:
    - target: {fileID: 4370984143860115014, guid: d51729f2c2982824b9125d6f9058a79c,
        type: 3}
      propertyPath: m_Name
      value: ExplosiveBullet
      objectReference: {fileID: 0}
    - target: {fileID: 3325032609866483760, guid: d51729f2c2982824b9125d6f9058a79c,
        type: 3}
      propertyPath: m_LocalPosition.x
      value: 2
      objectReference: {fileID: 0}
    - target: {fileID: 3325032609866483760, guid: d51729f2c2982824b9125d6f9058a79c,
        type: 3}
      propertyPath: m_LocalPosition.y
      value: 0
      objectReference: {fileID: 0}
    - target: {fileID: 3325032609866483760, guid: d51729f2c2982824b9125d6f9058a79c,
        type: 3}
      propertyPath: m_LocalPosition.z
      value: 0
      objectReference: {fileID: 0}
    - target: {fileID: 3325032609866483760, guid: d51729f2c2982824b9125d6f9058a79c,
        type: 3}
      propertyPath: m_LocalRotation.x
      value: 0
      objectReference: {fileID: 0}
    - target: {fileID: 3325032609866483760, guid: d51729f2c2982824b9125d6f9058a79c,
        type: 3}
      propertyPath: m_LocalRotation.y
      value: 0
      objectReference: {fileID: 0}
    - target: {fileID: 3325032609866483760, guid: d51729f2c2982824b9125d6f9058a79c,
        type: 3}
      propertyPath: m_LocalRotation.z
      value: 0
      objectReference: {fileID: 0}
    - target: {fileID: 3325032609866483760, guid: d51729f2c2982824b9125d6f9058a79c,
        type: 3}
      propertyPath: m_LocalRotation.w
      value: 1
      objectReference: {fileID: 0}
    - target: {fileID: 3325032609866483760, guid: d51729f2c2982824b9125d6f9058a79c,
        type: 3}
      propertyPath: m_RootOrder
      value: 3
      objectReference: {fileID: 0}
    - target: {fileID: 3325032609866483760, guid: d51729f2c2982824b9125d6f9058a79c,
        type: 3}
      propertyPath: m_LocalEulerAnglesHint.x
      value: 0
      objectReference: {fileID: 0}
    - target: {fileID: 3325032609866483760, guid: d51729f2c2982824b9125d6f9058a79c,
        type: 3}
      propertyPath: m_LocalEulerAnglesHint.y
      value: 0
      objectReference: {fileID: 0}
    - target: {fileID: 3325032609866483760, guid: d51729f2c2982824b9125d6f9058a79c,
        type: 3}
      propertyPath: m_LocalEulerAnglesHint.z
      value: 0
      objectReference: {fileID: 0}
    m_RemovedComponents: []
  m_SourcePrefab: {fileID: 100100000, guid: d51729f2c2982824b9125d6f9058a79c, type: 3}
