# MagicaVoxel @ Ephtracy

# group
o 

# material
mtllib trebuszWieght.mtl
usemtl palette

# normals
vn -1 0 0
vn 1 0 0
vn 0 0 1
vn 0 0 -1
vn 0 -1 0
vn 0 1 0

# texcoords
vt 0.310547 0.5
vt 0.986328 0.5

# verts
v -0.5 -0.9 0.4
v -0.5 -0.9 -0.4
v -0.5 -0.4 0.4
v -0.5 -0.4 -0.4
v -0.4 -1.1 0.4
v -0.4 -1.1 -0.4
v -0.4 -0.9 0.5
v -0.4 -0.9 0.4
v -0.4 -0.9 -0.4
v -0.4 -0.9 -0.5
v -0.4 -0.5 0.5
v -0.4 -0.5 0.4
v -0.4 -0.5 -0.4
v -0.4 -0.5 -0.5
v -0.4 -0.4 0.4
v -0.4 -0.4 -0.4
v -0.4 -0.3 0.3
v -0.4 -0.3 -0.4
v -0.4 -0.2 0.4
v -0.4 -0.2 0.3
v -0.3 -1 -0.4
v -0.3 -1 -0.5
v -0.3 -0.9 -0.4
v -0.3 -0.9 -0.5
v -0.3 -0.3 -0.3
v -0.3 -0.3 -0.4
v -0.3 -0.2 0.4
v -0.3 -0.2 0.3
v -0.3 -0.1 0.4
v -0.3 -0.1 0.3
v -0.3 -0.1 -0.3
v -0.3 -0.1 -0.4
v -0.2 -1.2 0.4
v -0.2 -1.2 -0.4
v -0.2 -1.1 0.4
v -0.2 -1.1 -0.4
v -0.2 -1 0.5
v -0.2 -1 0.4
v -0.2 -0.9 0.5
v -0.2 -0.9 0.4
v -0.2 -0.1 0.4
v -0.2 -0.1 0.3
v -0.2 -0.1 -0.3
v -0.2 -0.1 -0.4
v -0.2 0 0.4
v -0.2 0 0.3
v -0.2 0 -0.3
v -0.2 0 -0.4
v -0.1 -1.1 0.5
v -0.1 -1.1 0.4
v -0.1 -1.1 -0.4
v -0.1 -1.1 -0.5
v -0.1 -1 0.5
v -0.1 -1 0.4
v -0.1 -1 -0.4
v -0.1 -1 -0.5
v -0.1 0 0.4
v -0.1 0 0.3
v -0.1 0 -0.3
v -0.1 0 -0.4
v -0.1 0.0999999 0.4
v -0.1 0.0999999 -0.4
v 0.1 -0.1 0.4
v 0.1 -0.1 0.3
v 0.1 -0.1 -0.3
v 0.1 -0.1 -0.4
v 0.1 0 0.4
v 0.1 0 0.3
v 0.1 0 -0.3
v 0.1 0 -0.4
v 0.2 -0.3 0.4
v 0.2 -0.3 0.3
v 0.2 -0.3 -0.3
v 0.2 -0.3 -0.4
v 0.2 -0.1 0.4
v 0.2 -0.1 0.3
v 0.2 -0.1 -0.3
v 0.2 -0.1 -0.4
v 0.3 -0.4 0.4
v 0.3 -0.4 -0.4
v 0.3 -0.3 0.4
v 0.3 -0.3 0.3
v 0.3 -0.3 -0.3
v 0.3 -0.3 -0.4
v -0.3 -0.4 0.4
v -0.3 -0.4 -0.4
v -0.3 -0.3 0.4
v -0.3 -0.3 0.3
v -0.3 -0.3 -0.3
v -0.3 -0.3 -0.4
v -0.2 -0.3 0.4
v -0.2 -0.3 0.3
v -0.2 -0.3 -0.3
v -0.2 -0.3 -0.4
v -0.2 -0.2 0.4
v -0.2 -0.2 0.3
v -0.2 -0.2 -0.3
v -0.2 -0.2 -0.4
v -0.1 -0.2 0.4
v -0.1 -0.2 0.3
v -0.1 -0.2 -0.3
v -0.1 -0.2 -0.4
v -0.1 0 0.4
v -0.1 0 0.3
v -0.1 0 -0.3
v -0.1 0 -0.4
v 0.1 -1.1 0.5
v 0.1 -1.1 0.4
v 0.1 -1.1 -0.4
v 0.1 -1.1 -0.5
v 0.1 -1 0.5
v 0.1 -1 0.4
v 0.1 -1 -0.4
v 0.1 -1 -0.5
v 0.1 0 0.4
v 0.1 0 0.3
v 0.1 0 -0.3
v 0.1 0 -0.4
v 0.1 0.0999999 0.4
v 0.1 0.0999999 -0.4
v 0.2 -1.2 0.4
v 0.2 -1.2 -0.4
v 0.2 -1.1 0.4
v 0.2 -1.1 -0.4
v 0.2 -1 0.5
v 0.2 -1 0.4
v 0.2 -1 -0.4
v 0.2 -1 -0.5
v 0.2 -0.9 0.5
v 0.2 -0.9 0.4
v 0.2 -0.9 -0.4
v 0.2 -0.9 -0.5
v 0.2 -0.1 0.4
v 0.2 -0.1 0.3
v 0.2 -0.1 -0.3
v 0.2 -0.1 -0.4
v 0.2 0 0.4
v 0.2 0 0.3
v 0.2 0 -0.3
v 0.2 0 -0.4
v 0.3 -1.1 0.4
v 0.3 -1.1 -0.4
v 0.3 -1 0.4
v 0.3 -1 -0.4
v 0.3 -0.3 -0.3
v 0.3 -0.3 -0.4
v 0.3 -0.2 0.4
v 0.3 -0.2 0.3
v 0.3 -0.1 0.4
v 0.3 -0.1 0.3
v 0.3 -0.1 -0.3
v 0.3 -0.1 -0.4
v 0.4 -1 0.4
v 0.4 -1 -0.4
v 0.4 -0.9 0.5
v 0.4 -0.9 0.4
v 0.4 -0.9 -0.4
v 0.4 -0.9 -0.5
v 0.4 -0.5 0.5
v 0.4 -0.5 0.4
v 0.4 -0.5 -0.4
v 0.4 -0.5 -0.5
v 0.4 -0.4 0.4
v 0.4 -0.4 -0.4
v 0.4 -0.3 0.3
v 0.4 -0.3 -0.4
v 0.4 -0.2 0.4
v 0.4 -0.2 0.3
v 0.5 -0.9 0.4
v 0.5 -0.9 -0.4
v 0.5 -0.4 0.4
v 0.5 -0.4 -0.4
v -0.4 -0.9 0.5
v -0.4 -0.5 0.5
v -0.2 -1 0.5
v -0.2 -0.9 0.5
v -0.1 -1.1 0.5
v -0.1 -1 0.5
v 0.1 -1.1 0.5
v 0.1 -1 0.5
v 0.2 -1 0.5
v 0.2 -0.9 0.5
v 0.4 -0.9 0.5
v 0.4 -0.5 0.5
v -0.5 -0.9 0.4
v -0.5 -0.4 0.4
v -0.4 -1.1 0.4
v -0.4 -0.9 0.4
v -0.4 -0.5 0.4
v -0.4 -0.4 0.4
v -0.4 -0.2 0.4
v -0.3 -0.4 0.4
v -0.3 -0.3 0.4
v -0.3 -0.2 0.4
v -0.3 -0.1 0.4
v -0.2 -1.2 0.4
v -0.2 -1.1 0.4
v -0.2 -1 0.4
v -0.2 -0.9 0.4
v -0.2 -0.3 0.4
v -0.2 -0.2 0.4
v -0.2 -0.1 0.4
v -0.2 0 0.4
v -0.1 -1.1 0.4
v -0.1 -1 0.4
v -0.1 -0.2 0.4
v -0.1 0 0.4
v -0.1 0.0999999 0.4
v 0.1 -1.1 0.4
v 0.1 -1 0.4
v 0.1 -0.1 0.4
v 0.1 0 0.4
v 0.1 0.0999999 0.4
v 0.2 -1.2 0.4
v 0.2 -1.1 0.4
v 0.2 -1 0.4
v 0.2 -0.9 0.4
v 0.2 -0.3 0.4
v 0.2 -0.1 0.4
v 0.2 0 0.4
v 0.3 -1.1 0.4
v 0.3 -1 0.4
v 0.3 -0.4 0.4
v 0.3 -0.3 0.4
v 0.3 -0.2 0.4
v 0.3 -0.1 0.4
v 0.4 -1 0.4
v 0.4 -0.9 0.4
v 0.4 -0.5 0.4
v 0.4 -0.4 0.4
v 0.4 -0.2 0.4
v 0.5 -0.9 0.4
v 0.5 -0.4 0.4
v -0.3 -0.3 -0.3
v -0.3 -0.1 -0.3
v -0.2 -0.3 -0.3
v -0.2 -0.2 -0.3
v -0.2 -0.1 -0.3
v -0.2 0 -0.3
v -0.1 -0.2 -0.3
v -0.1 0 -0.3
v 0.1 -0.1 -0.3
v 0.1 0 -0.3
v 0.2 -0.3 -0.3
v 0.2 -0.1 -0.3
v 0.2 0 -0.3
v 0.3 -0.3 -0.3
v 0.3 -0.1 -0.3
v -0.4 -0.3 0.3
v -0.4 -0.2 0.3
v -0.3 -0.3 0.3
v -0.3 -0.2 0.3
v -0.3 -0.1 0.3
v -0.2 -0.3 0.3
v -0.2 -0.2 0.3
v -0.2 -0.1 0.3
v -0.2 0 0.3
v -0.1 -0.2 0.3
v -0.1 0 0.3
v 0.1 -0.1 0.3
v 0.1 0 0.3
v 0.2 -0.3 0.3
v 0.2 -0.1 0.3
v 0.2 0 0.3
v 0.3 -0.3 0.3
v 0.3 -0.2 0.3
v 0.3 -0.1 0.3
v 0.4 -0.3 0.3
v 0.4 -0.2 0.3
v -0.5 -0.9 -0.4
v -0.5 -0.4 -0.4
v -0.4 -1.1 -0.4
v -0.4 -0.9 -0.4
v -0.4 -0.5 -0.4
v -0.4 -0.4 -0.4
v -0.4 -0.3 -0.4
v -0.3 -1 -0.4
v -0.3 -0.9 -0.4
v -0.3 -0.4 -0.4
v -0.3 -0.3 -0.4
v -0.3 -0.1 -0.4
v -0.2 -1.2 -0.4
v -0.2 -1.1 -0.4
v -0.2 -0.3 -0.4
v -0.2 -0.2 -0.4
v -0.2 -0.1 -0.4
v -0.2 0 -0.4
v -0.1 -1.1 -0.4
v -0.1 -1 -0.4
v -0.1 -0.2 -0.4
v -0.1 0 -0.4
v -0.1 0.0999999 -0.4
v 0.1 -1.1 -0.4
v 0.1 -1 -0.4
v 0.1 -0.1 -0.4
v 0.1 0 -0.4
v 0.1 0.0999999 -0.4
v 0.2 -1.2 -0.4
v 0.2 -1.1 -0.4
v 0.2 -1 -0.4
v 0.2 -0.9 -0.4
v 0.2 -0.3 -0.4
v 0.2 -0.1 -0.4
v 0.2 0 -0.4
v 0.3 -1.1 -0.4
v 0.3 -1 -0.4
v 0.3 -0.4 -0.4
v 0.3 -0.3 -0.4
v 0.3 -0.1 -0.4
v 0.4 -1 -0.4
v 0.4 -0.9 -0.4
v 0.4 -0.5 -0.4
v 0.4 -0.4 -0.4
v 0.4 -0.3 -0.4
v 0.5 -0.9 -0.4
v 0.5 -0.4 -0.4
v -0.4 -0.9 -0.5
v -0.4 -0.5 -0.5
v -0.3 -1 -0.5
v -0.3 -0.9 -0.5
v -0.1 -1.1 -0.5
v -0.1 -1 -0.5
v 0.1 -1.1 -0.5
v 0.1 -1 -0.5
v 0.2 -1 -0.5
v 0.2 -0.9 -0.5
v 0.4 -0.9 -0.5
v 0.4 -0.5 -0.5
v -0.2 -1.2 0.4
v 0.2 -1.2 0.4
v -0.2 -1.2 -0.4
v 0.2 -1.2 -0.4
v -0.1 -1.1 0.5
v 0.1 -1.1 0.5
v -0.4 -1.1 0.4
v -0.2 -1.1 0.4
v -0.1 -1.1 0.4
v 0.1 -1.1 0.4
v 0.2 -1.1 0.4
v 0.3 -1.1 0.4
v -0.4 -1.1 -0.4
v -0.2 -1.1 -0.4
v -0.1 -1.1 -0.4
v 0.1 -1.1 -0.4
v 0.2 -1.1 -0.4
v 0.3 -1.1 -0.4
v -0.1 -1.1 -0.5
v 0.1 -1.1 -0.5
v -0.2 -1 0.5
v -0.1 -1 0.5
v 0.1 -1 0.5
v 0.2 -1 0.5
v -0.2 -1 0.4
v -0.1 -1 0.4
v 0.1 -1 0.4
v 0.2 -1 0.4
v 0.3 -1 0.4
v 0.4 -1 0.4
v -0.3 -1 -0.4
v -0.1 -1 -0.4
v 0.1 -1 -0.4
v 0.2 -1 -0.4
v 0.3 -1 -0.4
v 0.4 -1 -0.4
v -0.3 -1 -0.5
v -0.1 -1 -0.5
v 0.1 -1 -0.5
v 0.2 -1 -0.5
v -0.4 -0.9 0.5
v -0.2 -0.9 0.5
v 0.2 -0.9 0.5
v 0.4 -0.9 0.5
v -0.5 -0.9 0.4
v -0.4 -0.9 0.4
v -0.2 -0.9 0.4
v 0.2 -0.9 0.4
v 0.4 -0.9 0.4
v 0.5 -0.9 0.4
v -0.5 -0.9 -0.4
v -0.4 -0.9 -0.4
v -0.3 -0.9 -0.4
v 0.2 -0.9 -0.4
v 0.4 -0.9 -0.4
v 0.5 -0.9 -0.4
v -0.4 -0.9 -0.5
v -0.3 -0.9 -0.5
v 0.2 -0.9 -0.5
v 0.4 -0.9 -0.5
v -0.3 -0.3 0.4
v -0.2 -0.3 0.4
v 0.2 -0.3 0.4
v 0.3 -0.3 0.4
v -0.3 -0.3 0.3
v -0.2 -0.3 0.3
v 0.2 -0.3 0.3
v 0.3 -0.3 0.3
v -0.3 -0.3 -0.3
v -0.2 -0.3 -0.3
v 0.2 -0.3 -0.3
v 0.3 -0.3 -0.3
v -0.3 -0.3 -0.4
v -0.2 -0.3 -0.4
v 0.2 -0.3 -0.4
v 0.3 -0.3 -0.4
v -0.2 -0.2 0.4
v -0.1 -0.2 0.4
v -0.2 -0.2 0.3
v -0.1 -0.2 0.3
v -0.2 -0.2 -0.3
v -0.1 -0.2 -0.3
v -0.2 -0.2 -0.4
v -0.1 -0.2 -0.4
v 0.1 -0.1 0.4
v 0.2 -0.1 0.4
v 0.1 -0.1 0.3
v 0.2 -0.1 0.3
v 0.1 -0.1 -0.3
v 0.2 -0.1 -0.3
v 0.1 -0.1 -0.4
v 0.2 -0.1 -0.4
v -0.1 0 0.4
v 0.1 0 0.4
v -0.1 0 0.3
v 0.1 0 0.3
v -0.1 0 -0.3
v 0.1 0 -0.3
v -0.1 0 -0.4
v 0.1 0 -0.4
v -0.4 -0.5 0.5
v 0.4 -0.5 0.5
v -0.4 -0.5 0.4
v 0.4 -0.5 0.4
v -0.4 -0.5 -0.4
v 0.4 -0.5 -0.4
v -0.4 -0.5 -0.5
v 0.4 -0.5 -0.5
v -0.5 -0.4 0.4
v -0.4 -0.4 0.4
v -0.3 -0.4 0.4
v 0.3 -0.4 0.4
v 0.4 -0.4 0.4
v 0.5 -0.4 0.4
v -0.5 -0.4 -0.4
v -0.4 -0.4 -0.4
v -0.3 -0.4 -0.4
v 0.3 -0.4 -0.4
v 0.4 -0.4 -0.4
v 0.5 -0.4 -0.4
v -0.4 -0.3 0.3
v -0.3 -0.3 0.3
v 0.3 -0.3 0.3
v 0.4 -0.3 0.3
v -0.3 -0.3 -0.3
v 0.3 -0.3 -0.3
v -0.4 -0.3 -0.4
v -0.3 -0.3 -0.4
v 0.3 -0.3 -0.4
v 0.4 -0.3 -0.4
v -0.4 -0.2 0.4
v -0.3 -0.2 0.4
v 0.3 -0.2 0.4
v 0.4 -0.2 0.4
v -0.4 -0.2 0.3
v -0.3 -0.2 0.3
v 0.3 -0.2 0.3
v 0.4 -0.2 0.3
v -0.3 -0.1 0.4
v -0.2 -0.1 0.4
v 0.2 -0.1 0.4
v 0.3 -0.1 0.4
v -0.3 -0.1 0.3
v -0.2 -0.1 0.3
v 0.2 -0.1 0.3
v 0.3 -0.1 0.3
v -0.3 -0.1 -0.3
v -0.2 -0.1 -0.3
v 0.2 -0.1 -0.3
v 0.3 -0.1 -0.3
v -0.3 -0.1 -0.4
v -0.2 -0.1 -0.4
v 0.2 -0.1 -0.4
v 0.3 -0.1 -0.4
v -0.2 0 0.4
v -0.1 0 0.4
v 0.1 0 0.4
v 0.2 0 0.4
v -0.2 0 0.3
v -0.1 0 0.3
v 0.1 0 0.3
v 0.2 0 0.3
v -0.2 0 -0.3
v -0.1 0 -0.3
v 0.1 0 -0.3
v 0.2 0 -0.3
v -0.2 0 -0.4
v -0.1 0 -0.4
v 0.1 0 -0.4
v 0.2 0 -0.4
v -0.1 0.0999999 0.4
v 0.1 0.0999999 0.4
v -0.1 0.0999999 -0.4
v 0.1 0.0999999 -0.4

# faces
f 3/1/1 2/1/1 1/1/1
f 4/1/1 2/1/1 3/1/1
f 8/1/1 6/1/1 5/1/1
f 9/1/1 6/1/1 8/1/1
f 11/1/1 8/1/1 7/1/1
f 12/1/1 8/1/1 11/1/1
f 13/1/1 10/1/1 9/1/1
f 14/1/1 10/1/1 13/1/1
f 17/2/1 16/2/1 15/2/1
f 18/2/1 16/2/1 17/2/1
f 19/2/1 17/2/1 15/2/1
f 20/2/1 17/2/1 19/2/1
f 23/1/1 22/1/1 21/1/1
f 24/1/1 22/1/1 23/1/1
f 29/2/1 28/2/1 27/2/1
f 30/2/1 28/2/1 29/2/1
f 31/2/1 26/2/1 25/2/1
f 32/2/1 26/2/1 31/2/1
f 35/1/1 34/1/1 33/1/1
f 36/1/1 34/1/1 35/1/1
f 39/1/1 38/1/1 37/1/1
f 40/1/1 38/1/1 39/1/1
f 45/2/1 42/2/1 41/2/1
f 46/2/1 42/2/1 45/2/1
f 47/2/1 44/2/1 43/2/1
f 48/2/1 44/2/1 47/2/1
f 53/1/1 50/1/1 49/1/1
f 54/1/1 50/1/1 53/1/1
f 55/1/1 52/1/1 51/1/1
f 56/1/1 52/1/1 55/1/1
f 61/2/1 58/2/1 57/2/1
f 61/2/1 60/2/1 59/2/1
f 61/2/1 59/2/1 58/2/1
f 62/2/1 60/2/1 61/2/1
f 67/2/1 64/2/1 63/2/1
f 68/2/1 64/2/1 67/2/1
f 69/2/1 66/2/1 65/2/1
f 70/2/1 66/2/1 69/2/1
f 75/2/1 72/2/1 71/2/1
f 76/2/1 72/2/1 75/2/1
f 77/2/1 74/2/1 73/2/1
f 78/2/1 74/2/1 77/2/1
f 81/2/1 80/2/1 79/2/1
f 82/2/1 80/2/1 81/2/1
f 83/2/1 80/2/1 82/2/1
f 84/2/1 80/2/1 83/2/1
f 85/2/2 86/2/2 87/2/2
f 87/2/2 86/2/2 88/2/2
f 88/2/2 86/2/2 89/2/2
f 89/2/2 86/2/2 90/2/2
f 91/2/2 92/2/2 95/2/2
f 95/2/2 92/2/2 96/2/2
f 93/2/2 94/2/2 97/2/2
f 97/2/2 94/2/2 98/2/2
f 99/2/2 100/2/2 103/2/2
f 103/2/2 100/2/2 104/2/2
f 101/2/2 102/2/2 105/2/2
f 105/2/2 102/2/2 106/2/2
f 107/1/2 108/1/2 111/1/2
f 111/1/2 108/1/2 112/1/2
f 109/1/2 110/1/2 113/1/2
f 113/1/2 110/1/2 114/1/2
f 115/2/2 116/2/2 119/2/2
f 117/2/2 118/2/2 119/2/2
f 116/2/2 117/2/2 119/2/2
f 119/2/2 118/2/2 120/2/2
f 121/1/2 122/1/2 123/1/2
f 123/1/2 122/1/2 124/1/2
f 125/1/2 126/1/2 129/1/2
f 129/1/2 126/1/2 130/1/2
f 127/1/2 128/1/2 131/1/2
f 131/1/2 128/1/2 132/1/2
f 133/2/2 134/2/2 137/2/2
f 137/2/2 134/2/2 138/2/2
f 135/2/2 136/2/2 139/2/2
f 139/2/2 136/2/2 140/2/2
f 141/1/2 142/1/2 143/1/2
f 143/1/2 142/1/2 144/1/2
f 147/2/2 148/2/2 149/2/2
f 149/2/2 148/2/2 150/2/2
f 145/2/2 146/2/2 151/2/2
f 151/2/2 146/2/2 152/2/2
f 153/1/2 154/1/2 156/1/2
f 156/1/2 154/1/2 157/1/2
f 155/1/2 156/1/2 159/1/2
f 159/1/2 156/1/2 160/1/2
f 157/1/2 158/1/2 161/1/2
f 161/1/2 158/1/2 162/1/2
f 163/2/2 164/2/2 165/2/2
f 165/2/2 164/2/2 166/2/2
f 163/2/2 165/2/2 167/2/2
f 167/2/2 165/2/2 168/2/2
f 169/1/2 170/1/2 171/1/2
f 171/1/2 170/1/2 172/1/2
f 176/1/3 174/1/3 173/1/3
f 178/1/3 176/1/3 175/1/3
f 179/1/3 178/1/3 177/1/3
f 180/1/3 176/1/3 178/1/3
f 180/1/3 178/1/3 179/1/3
f 181/1/3 176/1/3 180/1/3
f 182/1/3 174/1/3 176/1/3
f 182/1/3 176/1/3 181/1/3
f 183/1/3 174/1/3 182/1/3
f 184/1/3 174/1/3 183/1/3
f 188/1/3 186/1/3 185/1/3
f 189/1/3 186/1/3 188/1/3
f 190/1/3 186/1/3 189/1/3
f 192/2/3 191/2/3 190/2/3
f 192/1/3 190/1/3 189/1/3
f 193/2/3 191/2/3 192/2/3
f 194/2/3 191/2/3 193/2/3
f 197/1/3 188/1/3 187/1/3
f 198/1/3 188/1/3 197/1/3
f 199/1/3 188/1/3 198/1/3
f 200/2/3 194/2/3 193/2/3
f 200/2/3 195/2/3 194/2/3
f 201/2/3 195/2/3 200/2/3
f 202/2/3 195/2/3 201/2/3
f 204/1/3 198/1/3 197/1/3
f 204/1/3 197/1/3 196/1/3
f 205/1/3 198/1/3 204/1/3
f 206/2/3 203/2/3 202/2/3
f 206/2/3 202/2/3 201/2/3
f 207/2/3 203/2/3 206/2/3
f 209/1/3 204/1/3 196/1/3
f 212/2/3 208/2/3 207/2/3
f 213/2/3 208/2/3 212/2/3
f 214/1/3 210/1/3 209/1/3
f 214/1/3 209/1/3 196/1/3
f 215/1/3 210/1/3 214/1/3
f 216/1/3 210/1/3 215/1/3
f 219/2/3 212/2/3 211/2/3
f 220/2/3 212/2/3 219/2/3
f 221/1/3 217/1/3 216/1/3
f 221/1/3 216/1/3 215/1/3
f 222/1/3 217/1/3 221/1/3
f 223/1/3 192/1/3 189/1/3
f 224/2/3 219/2/3 218/2/3
f 225/2/3 219/2/3 224/2/3
f 226/2/3 219/2/3 225/2/3
f 227/1/3 217/1/3 222/1/3
f 228/1/3 217/1/3 227/1/3
f 229/1/3 223/1/3 189/1/3
f 230/2/3 225/2/3 224/2/3
f 230/2/3 224/2/3 223/2/3
f 230/1/3 223/1/3 229/1/3
f 231/2/3 225/2/3 230/2/3
f 232/1/3 229/1/3 228/1/3
f 232/1/3 230/1/3 229/1/3
f 233/1/3 230/1/3 232/1/3
f 236/2/3 235/2/3 234/2/3
f 237/2/3 235/2/3 236/2/3
f 238/2/3 235/2/3 237/2/3
f 240/2/3 239/2/3 238/2/3
f 240/2/3 238/2/3 237/2/3
f 241/2/3 239/2/3 240/2/3
f 245/2/3 243/2/3 242/2/3
f 246/2/3 243/2/3 245/2/3
f 247/2/3 245/2/3 244/2/3
f 248/2/3 245/2/3 247/2/3
f 249/2/4 250/2/4 251/2/4
f 251/2/4 250/2/4 252/2/4
f 251/2/4 252/2/4 254/2/4
f 252/2/4 253/2/4 254/2/4
f 254/2/4 253/2/4 255/2/4
f 255/2/4 253/2/4 256/2/4
f 256/2/4 257/2/4 258/2/4
f 255/2/4 256/2/4 258/2/4
f 258/2/4 257/2/4 259/2/4
f 260/2/4 261/2/4 263/2/4
f 263/2/4 261/2/4 264/2/4
f 262/2/4 263/2/4 265/2/4
f 265/2/4 263/2/4 266/2/4
f 266/2/4 263/2/4 267/2/4
f 265/2/4 266/2/4 268/2/4
f 268/2/4 266/2/4 269/2/4
f 270/1/4 271/1/4 273/1/4
f 273/1/4 271/1/4 274/1/4
f 274/1/4 271/1/4 275/1/4
f 272/1/4 273/1/4 277/1/4
f 277/1/4 273/1/4 278/1/4
f 275/2/4 276/2/4 279/2/4
f 274/1/4 275/1/4 279/1/4
f 279/2/4 276/2/4 280/2/4
f 272/1/4 277/1/4 283/1/4
f 280/2/4 281/2/4 284/2/4
f 284/2/4 281/2/4 285/2/4
f 285/2/4 281/2/4 286/2/4
f 282/1/4 283/1/4 288/1/4
f 283/1/4 277/1/4 288/1/4
f 288/1/4 277/1/4 289/1/4
f 286/2/4 287/2/4 290/2/4
f 285/2/4 286/2/4 290/2/4
f 290/2/4 287/2/4 291/2/4
f 282/1/4 288/1/4 293/1/4
f 291/2/4 292/2/4 296/2/4
f 296/2/4 292/2/4 297/2/4
f 293/1/4 294/1/4 298/1/4
f 282/1/4 293/1/4 298/1/4
f 298/1/4 294/1/4 299/1/4
f 299/1/4 294/1/4 300/1/4
f 295/2/4 296/2/4 303/2/4
f 303/2/4 296/2/4 304/2/4
f 300/1/4 301/1/4 305/1/4
f 299/1/4 300/1/4 305/1/4
f 305/1/4 301/1/4 306/1/4
f 274/1/4 279/1/4 307/1/4
f 302/2/4 303/2/4 308/2/4
f 308/2/4 303/2/4 309/2/4
f 306/1/4 301/1/4 310/1/4
f 310/1/4 301/1/4 311/1/4
f 274/1/4 307/1/4 312/1/4
f 307/2/4 308/2/4 313/2/4
f 312/1/4 307/1/4 313/1/4
f 313/2/4 308/2/4 314/2/4
f 311/1/4 312/1/4 315/1/4
f 312/1/4 313/1/4 315/1/4
f 315/1/4 313/1/4 316/1/4
f 317/1/4 318/1/4 320/1/4
f 319/1/4 320/1/4 322/1/4
f 321/1/4 322/1/4 323/1/4
f 322/1/4 320/1/4 324/1/4
f 323/1/4 322/1/4 324/1/4
f 324/1/4 320/1/4 325/1/4
f 320/1/4 318/1/4 326/1/4
f 325/1/4 320/1/4 326/1/4
f 326/1/4 318/1/4 327/1/4
f 327/1/4 318/1/4 328/1/4
f 331/1/5 330/1/5 329/1/5
f 332/1/5 330/1/5 331/1/5
f 337/1/5 334/1/5 333/1/5
f 338/1/5 334/1/5 337/1/5
f 341/1/5 336/1/5 335/1/5
f 342/1/5 336/1/5 341/1/5
f 345/1/5 340/1/5 339/1/5
f 346/1/5 340/1/5 345/1/5
f 347/1/5 344/1/5 343/1/5
f 348/1/5 344/1/5 347/1/5
f 353/1/5 350/1/5 349/1/5
f 354/1/5 350/1/5 353/1/5
f 355/1/5 352/1/5 351/1/5
f 356/1/5 352/1/5 355/1/5
f 363/1/5 358/1/5 357/1/5
f 364/1/5 358/1/5 363/1/5
f 365/1/5 360/1/5 359/1/5
f 366/1/5 360/1/5 365/1/5
f 367/1/5 362/1/5 361/1/5
f 368/1/5 362/1/5 367/1/5
f 374/1/5 370/1/5 369/1/5
f 375/1/5 370/1/5 374/1/5
f 376/1/5 372/1/5 371/1/5
f 377/1/5 372/1/5 376/1/5
f 379/1/5 374/1/5 373/1/5
f 380/1/5 374/1/5 379/1/5
f 383/1/5 378/1/5 377/1/5
f 384/1/5 378/1/5 383/1/5
f 385/1/5 381/1/5 380/1/5
f 386/1/5 381/1/5 385/1/5
f 387/1/5 383/1/5 382/1/5
f 388/1/5 383/1/5 387/1/5
f 393/2/5 390/2/5 389/2/5
f 394/2/5 390/2/5 393/2/5
f 395/2/5 392/2/5 391/2/5
f 396/2/5 392/2/5 395/2/5
f 401/2/5 398/2/5 397/2/5
f 402/2/5 398/2/5 401/2/5
f 403/2/5 400/2/5 399/2/5
f 404/2/5 400/2/5 403/2/5
f 407/2/5 406/2/5 405/2/5
f 408/2/5 406/2/5 407/2/5
f 411/2/5 410/2/5 409/2/5
f 412/2/5 410/2/5 411/2/5
f 415/2/5 414/2/5 413/2/5
f 416/2/5 414/2/5 415/2/5
f 419/2/5 418/2/5 417/2/5
f 420/2/5 418/2/5 419/2/5
f 423/2/5 422/2/5 421/2/5
f 424/2/5 422/2/5 423/2/5
f 425/2/5 424/2/5 423/2/5
f 426/2/5 424/2/5 425/2/5
f 427/2/5 426/2/5 425/2/5
f 428/2/5 426/2/5 427/2/5
f 429/1/6 430/1/6 431/1/6
f 431/1/6 430/1/6 432/1/6
f 433/1/6 434/1/6 435/1/6
f 435/1/6 434/1/6 436/1/6
f 437/1/6 438/1/6 443/1/6
f 443/1/6 438/1/6 444/1/6
f 439/1/6 440/1/6 445/1/6
f 445/1/6 440/1/6 446/1/6
f 441/1/6 442/1/6 447/1/6
f 447/1/6 442/1/6 448/1/6
f 449/2/6 450/2/6 453/2/6
f 451/2/6 452/2/6 454/2/6
f 449/2/6 453/2/6 455/2/6
f 455/2/6 453/2/6 456/2/6
f 454/2/6 452/2/6 457/2/6
f 457/2/6 452/2/6 458/2/6
f 459/2/6 460/2/6 463/2/6
f 463/2/6 460/2/6 464/2/6
f 461/2/6 462/2/6 465/2/6
f 465/2/6 462/2/6 466/2/6
f 467/2/6 468/2/6 471/2/6
f 471/2/6 468/2/6 472/2/6
f 469/2/6 470/2/6 473/2/6
f 473/2/6 470/2/6 474/2/6
f 475/2/6 476/2/6 479/2/6
f 479/2/6 476/2/6 480/2/6
f 477/2/6 478/2/6 481/2/6
f 481/2/6 478/2/6 482/2/6
f 483/2/6 484/2/6 487/2/6
f 487/2/6 484/2/6 488/2/6
f 485/2/6 486/2/6 489/2/6
f 489/2/6 486/2/6 490/2/6
f 491/2/6 492/2/6 495/2/6
f 495/2/6 492/2/6 496/2/6
f 493/2/6 494/2/6 497/2/6
f 497/2/6 494/2/6 498/2/6
f 499/2/6 500/2/6 501/2/6
f 501/2/6 500/2/6 502/2/6
