%YAML 1.1
%TAG !u! tag:unity3d.com,2011:
--- !u!114 &11400000
MonoBehaviour:
  m_ObjectHideFlags: 0
  m_CorrespondingSourceObject: {fileID: 0}
  m_PrefabInstance: {fileID: 0}
  m_PrefabAsset: {fileID: 0}
  m_GameObject: {fileID: 0}
  m_Enabled: 1
  m_EditorHideFlags: 0
  m_Script: {fileID: 11500000, guid: 21bec35c32aea9e4997e28254079b038, type: 3}
  m_Name: __actions_default
  m_EditorClassIdentifier: 
  allActions:
  - {fileID: 11400000, guid: 1551bb872e0da2c488b2bee272c5b158, type: 2}
  - {fileID: 11400000, guid: db880329966813046946f2cc8a0ffdec, type: 2}
  - {fileID: 11400000, guid: 4088487fadf001d4b9b2d803e5ce641f, type: 2}
  - {fileID: 11400000, guid: fef3158fa11e0a446afb98690039bec6, type: 2}
  - {fileID: 11400000, guid: c82e8ecdabbe33c4bb8c7ddb9f710061, type: 2}
  - {fileID: 11400000, guid: e570cff011ca66344bf87c3eda2b8931, type: 2}
  - {fileID: 11400000, guid: e020c3fe6d2a1d240a0b027a991dfdf2, type: 2}
  - {fileID: 11400000, guid: c5642daceb469c0449af12a2f883eca3, type: 2}
  - {fileID: 11400000, guid: 5536430f04e955040acd4bf5867b3804, type: 2}
  - {fileID: 11400000, guid: 889499cac322d97469a3bdcae9ab5c34, type: 2}
  - {fileID: 11400000, guid: 654240786c30d2047864df1c014df39f, type: 2}
  nonVisualInActions:
  - {fileID: 11400000, guid: 1551bb872e0da2c488b2bee272c5b158, type: 2}
  - {fileID: 11400000, guid: db880329966813046946f2cc8a0ffdec, type: 2}
  - {fileID: 11400000, guid: 4088487fadf001d4b9b2d803e5ce641f, type: 2}
  - {fileID: 11400000, guid: fef3158fa11e0a446afb98690039bec6, type: 2}
  - {fileID: 11400000, guid: c5642daceb469c0449af12a2f883eca3, type: 2}
  - {fileID: 11400000, guid: 5536430f04e955040acd4bf5867b3804, type: 2}
  - {fileID: 11400000, guid: 889499cac322d97469a3bdcae9ab5c34, type: 2}
  visualActions:
  - {fileID: 11400000, guid: c82e8ecdabbe33c4bb8c7ddb9f710061, type: 2}
  - {fileID: 11400000, guid: e570cff011ca66344bf87c3eda2b8931, type: 2}
  - {fileID: 11400000, guid: e020c3fe6d2a1d240a0b027a991dfdf2, type: 2}
  poseActions:
  - {fileID: 11400000, guid: c82e8ecdabbe33c4bb8c7ddb9f710061, type: 2}
  - {fileID: 11400000, guid: e570cff011ca66344bf87c3eda2b8931, type: 2}
  - {fileID: 11400000, guid: e020c3fe6d2a1d240a0b027a991dfdf2, type: 2}
  skeletonActions:
  - {fileID: 11400000, guid: e570cff011ca66344bf87c3eda2b8931, type: 2}
  - {fileID: 11400000, guid: e020c3fe6d2a1d240a0b027a991dfdf2, type: 2}
  outActionArray:
  - {fileID: 11400000, guid: 654240786c30d2047864df1c014df39f, type: 2}
  fullPath: /actions/default
  usage: single
  inActions: {fileID: 11400000, guid: d7db65d56254dc34ab096bb9fb3165c8, type: 2}
  outActions: {fileID: 11400000, guid: 64907738b440e074f988b85c2f70c7e7, type: 2}
