%YAML 1.1
%TAG !u! tag:unity3d.com,2011:
--- !u!114 &11400000
MonoBehaviour:
  m_ObjectHideFlags: 0
  m_CorrespondingSourceObject: {fileID: 0}
  m_PrefabInstance: {fileID: 0}
  m_PrefabAsset: {fileID: 0}
  m_GameObject: {fileID: 0}
  m_Enabled: 1
  m_EditorHideFlags: 0
  m_Script: {fileID: 11500000, guid: 75c12172112c814429fac1f385f42663, type: 3}
  m_Name: SteamVR_Input_ActionSet_platformer_In
  m_EditorClassIdentifier: 
  actionSet: {fileID: 0}
  listDirection: 0
  actions:
  - {fileID: 11400000, guid: 36629f2e3814c56479440273ae199d36, type: 2}
  - {fileID: 11400000, guid: 0fd4d8fa508b89c4ea28bc53c9038888, type: 2}
  Move: {fileID: 11400000, guid: 36629f2e3814c56479440273ae199d36, type: 2}
  Jump: {fileID: 11400000, guid: 0fd4d8fa508b89c4ea28bc53c9038888, type: 2}
