%YAML 1.1
%TAG !u! tag:unity3d.com,2011:
--- !u!114 &11400000
MonoBehaviour:
  m_ObjectHideFlags: 0
  m_CorrespondingSourceObject: {fileID: 0}
  m_PrefabInstance: {fileID: 0}
  m_PrefabAsset: {fileID: 0}
  m_GameObject: {fileID: 0}
  m_Enabled: 1
  m_EditorHideFlags: 0
  m_Script: {fileID: 11500000, guid: 190ba5007238c3d478a5aee4268c51a1, type: 3}
  m_Name: SteamVR_Input_ActionSet_buggy_In
  m_EditorClassIdentifier: 
  actionSet: {fileID: 0}
  listDirection: 0
  actions:
  - {fileID: 11400000, guid: 996cc59e9dea3ff4d969d5f64a7271d9, type: 2}
  - {fileID: 11400000, guid: c2187af6b0bbf8847a4c886186ceb40b, type: 2}
  - {fileID: 11400000, guid: cb4d752f74f194d47967d7a2b0ce3b1e, type: 2}
  - {fileID: 11400000, guid: ed3310d15807b4145a104d19b61ea3eb, type: 2}
  Steering: {fileID: 11400000, guid: 996cc59e9dea3ff4d969d5f64a7271d9, type: 2}
  Throttle: {fileID: 11400000, guid: c2187af6b0bbf8847a4c886186ceb40b, type: 2}
  Brake: {fileID: 11400000, guid: cb4d752f74f194d47967d7a2b0ce3b1e, type: 2}
  Reset: {fileID: 11400000, guid: ed3310d15807b4145a104d19b61ea3eb, type: 2}
